veri-sim/freelist/user/run/wave.vcd
$date
	Thu Sep 21 22:18:16 2023
$end
$version
	Icarus Verilog
$end
$timescale
	1s
$end
$scope module testbench $end
$var wire 1 ! io_pvld_3 $end
$var wire 1 " io_pvld_2 $end
$var wire 1 # io_pvld_1 $end
$var wire 1 $ io_pvld_0 $end
$var wire 6 % io_pidx_3 [5:0] $end
$var wire 6 & io_pidx_2 [5:0] $end
$var wire 6 ' io_pidx_1 [5:0] $end
$var wire 6 ( io_pidx_0 [5:0] $end
$var wire 1 ) io_busy $end
$var reg 32 * addr [31:0] $end
$var reg 1 + clock $end
$var reg 32 , data [31:0] $end
$var reg 1 - io_req_0 $end
$var reg 1 . io_req_1 $end
$var reg 1 / io_req_2 $end
$var reg 1 0 io_req_3 $end
$var reg 1 1 io_rls_0 $end
$var reg 1 2 io_rls_1 $end
$var reg 1 3 io_rls_2 $end
$var reg 1 4 io_rls_3 $end
$var reg 6 5 io_rls_pidx_0 [5:0] $end
$var reg 6 6 io_rls_pidx_1 [5:0] $end
$var reg 6 7 io_rls_pidx_2 [5:0] $end
$var reg 6 8 io_rls_pidx_3 [5:0] $end
$var reg 1 9 reset $end
$scope module freelist $end
$var wire 1 : _io_pidx_1_T_8 $end
$var wire 1 ; _io_pidx_2_T_12 $end
$var wire 1 < _io_pidx_2_T_6 $end
$var wire 1 = _io_pidx_2_T_9 $end
$var wire 1 > _io_pidx_3_T_10 $end
$var wire 1 ? _io_pidx_3_T_13 $end
$var wire 1 @ _io_pidx_3_T_4 $end
$var wire 1 A _io_pidx_3_T_7 $end
$var wire 1 B _io_pvld_0_T_7 $end
$var wire 1 + clock $end
$var wire 1 C full $end
$var wire 1 D idx_r_MPORT_1_en $end
$var wire 1 E idx_r_MPORT_1_mask $end
$var wire 1 F idx_r_MPORT_2_en $end
$var wire 1 G idx_r_MPORT_2_mask $end
$var wire 1 H idx_r_MPORT_3_en $end
$var wire 1 I idx_r_MPORT_3_mask $end
$var wire 1 J idx_r_MPORT_en $end
$var wire 1 K idx_r_MPORT_mask $end
$var wire 6 L idx_r_rd_pidx_0_MPORT_data [5:0] $end
$var wire 1 M idx_r_rd_pidx_0_MPORT_en $end
$var wire 6 N idx_r_rd_pidx_1_MPORT_data [5:0] $end
$var wire 1 O idx_r_rd_pidx_1_MPORT_en $end
$var wire 6 P idx_r_rd_pidx_2_MPORT_data [5:0] $end
$var wire 1 Q idx_r_rd_pidx_2_MPORT_en $end
$var wire 6 R idx_r_rd_pidx_3_MPORT_data [5:0] $end
$var wire 1 S idx_r_rd_pidx_3_MPORT_en $end
$var wire 1 $ io_pvld_0 $end
$var wire 1 # io_pvld_1 $end
$var wire 1 " io_pvld_2 $end
$var wire 1 ! io_pvld_3 $end
$var wire 1 - io_req_0 $end
$var wire 1 . io_req_1 $end
$var wire 1 / io_req_2 $end
$var wire 1 0 io_req_3 $end
$var wire 1 1 io_rls_0 $end
$var wire 1 2 io_rls_1 $end
$var wire 1 3 io_rls_2 $end
$var wire 1 4 io_rls_3 $end
$var wire 6 T io_rls_pidx_0 [5:0] $end
$var wire 6 U io_rls_pidx_1 [5:0] $end
$var wire 6 V io_rls_pidx_2 [5:0] $end
$var wire 6 W io_rls_pidx_3 [5:0] $end
$var wire 1 X rd_pvld_0 $end
$var wire 1 Y rd_pvld_1 $end
$var wire 1 Z rd_pvld_2 $end
$var wire 1 [ rd_pvld_3 $end
$var wire 1 \ re $end
$var wire 1 9 reset $end
$var wire 1 ] we $end
$var wire 2 ^ w_pidx_sum [1:0] $end
$var wire 4 _ w_onehot [3:0] $end
$var wire 6 ` rd_pidx_3 [5:0] $end
$var wire 6 a rd_pidx_2 [5:0] $end
$var wire 6 b rd_pidx_1 [5:0] $end
$var wire 6 c rd_pidx_0 [5:0] $end
$var wire 2 d r_pidx_sum [1:0] $end
$var wire 4 e r_onehot [3:0] $end
$var wire 6 f io_pidx_3 [5:0] $end
$var wire 6 g io_pidx_2 [5:0] $end
$var wire 6 h io_pidx_1 [5:0] $end
$var wire 6 i io_pidx_0 [5:0] $end
$var wire 1 ) io_busy $end
$var wire 6 j idx_r_rd_pidx_3_MPORT_addr [5:0] $end
$var wire 6 k idx_r_rd_pidx_2_MPORT_addr [5:0] $end
$var wire 6 l idx_r_rd_pidx_1_MPORT_addr [5:0] $end
$var wire 6 m idx_r_rd_pidx_0_MPORT_addr [5:0] $end
$var wire 6 n idx_r_MPORT_data [5:0] $end
$var wire 6 o idx_r_MPORT_addr [5:0] $end
$var wire 6 p idx_r_MPORT_3_data [5:0] $end
$var wire 6 q idx_r_MPORT_3_addr [5:0] $end
$var wire 6 r idx_r_MPORT_2_data [5:0] $end
$var wire 6 s idx_r_MPORT_2_addr [5:0] $end
$var wire 6 t idx_r_MPORT_1_data [5:0] $end
$var wire 6 u idx_r_MPORT_1_addr [5:0] $end
$var wire 1 v empty $end
$var wire 6 w _wr_pidx_0_T_2 [5:0] $end
$var wire 6 x _wr_pidx_0_T_1 [5:0] $end
$var wire 6 y _wr_pidx_0_T [5:0] $end
$var wire 4 z _w_pidx_sum_T_2 [3:0] $end
$var wire 3 { _w_pidx_sum_T_1 [2:0] $end
$var wire 2 | _w_pidx_sum_T [1:0] $end
$var wire 1 } _w_onehot_T_2 $end
$var wire 1 ~ _w_onehot_T_1 $end
$var wire 1 !" _w_onehot_T $end
$var wire 7 "" _rd_pidx_3_T_1 [6:0] $end
$var wire 7 #" _rd_pidx_2_T_1 [6:0] $end
$var wire 7 $" _rd_pidx_1_T_1 [6:0] $end
$var wire 8 %" _rd_pidx_0_T [7:0] $end
$var wire 4 &" _r_pidx_sum_T_2 [3:0] $end
$var wire 3 '" _r_pidx_sum_T_1 [2:0] $end
$var wire 2 (" _r_pidx_sum_T [1:0] $end
$var wire 1 )" _r_onehot_T_2 $end
$var wire 1 *" _r_onehot_T_1 $end
$var wire 1 +" _r_onehot_T $end
$var wire 1 ," _io_pvld_3_T_17 $end
$var wire 1 -" _io_pvld_3_T_16 $end
$var wire 1 ." _io_pvld_3_T_15 $end
$var wire 1 /" _io_pvld_2_T_19 $end
$var wire 1 0" _io_pvld_2_T_18 $end
$var wire 1 1" _io_pvld_2_T_17 $end
$var wire 1 2" _io_pvld_1_T_21 $end
$var wire 1 3" _io_pvld_1_T_20 $end
$var wire 1 4" _io_pvld_1_T_19 $end
$var wire 6 5" _io_pidx_3_T_17 [5:0] $end
$var wire 6 6" _io_pidx_3_T_16 [5:0] $end
$var wire 6 7" _io_pidx_3_T_15 [5:0] $end
$var wire 6 8" _io_pidx_3_T_14 [5:0] $end
$var wire 6 9" _io_pidx_2_T_19 [5:0] $end
$var wire 6 :" _io_pidx_2_T_18 [5:0] $end
$var wire 6 ;" _io_pidx_2_T_17 [5:0] $end
$var wire 6 <" _io_pidx_1_T_21 [5:0] $end
$var wire 6 =" _io_pidx_0_T_7 [5:0] $end
$var wire 6 >" _io_pidx_0_T_6 [5:0] $end
$var wire 6 ?" _io_pidx_0_T_5 [5:0] $end
$var wire 6 @" _io_pidx_0_T_4 [5:0] $end
$var wire 7 A" _idx_wptr_T_1 [6:0] $end
$var wire 7 B" _idx_rptr_T_1 [6:0] $end
$var wire 1 C" _full_T_5 $end
$var wire 7 D" _T_24 [6:0] $end
$var wire 8 E" _T_2 [7:0] $end
$var wire 7 F" _T_17 [6:0] $end
$var wire 7 G" _T_10 [6:0] $end
$var wire 7 H" _GEN_51 [6:0] $end
$var wire 7 I" _GEN_50 [6:0] $end
$var wire 3 J" _GEN_49 [2:0] $end
$var wire 2 K" _GEN_48 [1:0] $end
$var wire 3 L" _GEN_47 [2:0] $end
$var wire 2 M" _GEN_46 [1:0] $end
$var reg 7 N" idx_rptr [6:0] $end
$var reg 7 O" idx_wptr [6:0] $end
$upscope $end
$upscope $end
$enddefinitions $end
#0
$dumpvars
bx O"
bx N"
b0 M"
b0 L"
b0 K"
b0 J"
b0 I"
b0 H"
bx G"
bx F"
b0xxxxxxx E"
bx D"
xC"
bx B"
bx A"
b0 @"
b0 ?"
b0 >"
b0 ="
b0 <"
b0 ;"
b0 :"
b0 9"
b0 8"
b0 7"
b0 6"
b0 5"
04"
03"
02"
01"
00"
0/"
0."
0-"
0,"
0+"
0*"
0)"
b0 ("
b0 '"
b0 &"
b0xxxxxxx %"
bx $"
bx #"
bx ""
0!"
0~
0}
b0 |
b0 {
b0 z
b0 y
b0 x
b0 w
xv
bx u
b0 t
bx s
b0 r
bx q
b0 p
bx o
b0 n
bx m
bx l
bx k
bx j
b0 i
b0 h
b0 g
b0 f
b0 e
b0 d
b0 c
b0 b
b0 a
b0 `
b0 _
b0 ^
0]
0\
0[
0Z
0Y
0X
b0 W
b0 V
b0 U
b0 T
0S
bx R
0Q
bx P
0O
bx N
0M
bx L
1K
0J
1I
0H
1G
0F
1E
0D
xC
0B
0A
0@
0?
0>
0=
0<
0;
0:
19
b0 8
b0 7
b0 6
b0 5
04
03
02
01
00
0/
0.
0-
b0 ,
0+
b0 *
x)
b0 (
b0 '
b0 &
b0 %
0$
0#
0"
0!
$end
#5
1C
0v
1C"
b0 o
b1 u
b10 s
b11 q
0)
b0 L
b0 m
b1 N
b1 l
b10 P
b10 k
b11 R
b11 j
b1000000 A"
b1000000 E"
b1000001 G"
b1000010 F"
b1000011 D"
b1000000 O"
b0 B"
b0 %"
b1 $"
b10 #"
b11 ""
b0 N"
1+
#10
0+
#15
1+
#20
0+
#25
1+
#30
0+
#35
1+
#40
0+
#45
1+
#50
b10 %
b10 f
b1 &
b1 g
b10 5"
1!
b1 <"
b1 9"
1"
b10 6"
1,"
b1 >"
b1 :"
12"
1/"
b10 ?"
b10 ;"
b10 7"
1-"
b1 b
13"
10"
b10 a
14"
11"
1."
1X
1Y
1Z
1M
1O
1Q
1$
1\
1B
1=
1;
1>
1+"
1*"
b111 e
1)"
b11 B"
b11 I"
b11 d
b1 L"
10
b1 M"
1/
b11 &"
b10 '"
b1 ("
1-
0+
09
#55
b101 %
b101 f
b100 &
b100 g
b101 5"
b11 (
b11 i
b100 <"
b100 9"
b101 6"
b11 ="
b100 >"
b100 :"
b101 ?"
b101 ;"
b101 7"
b11 c
b100 b
b101 a
b11 L
b11 m
b100 N
b100 l
b101 P
b101 k
b110 R
b110 j
b110 B"
b11 %"
b100 $"
b101 #"
b110 ""
b11 N"
b1 ,
b1 *
1+
#60
0+
#65
b1000 %
b1000 f
b111 &
b111 g
b1000 5"
b110 (
b110 i
b111 <"
b111 9"
b1000 6"
b110 ="
b111 >"
b111 :"
b1000 ?"
b1000 ;"
b1000 7"
0C
b110 c
b111 b
b1000 a
0C"
b110 L
b110 m
b111 N
b111 l
b1000 P
b1000 k
b1001 R
b1001 j
b1001 B"
b110 %"
b111 $"
b1000 #"
b1001 ""
b110 N"
b10 *
b10 ,
1+
#70
0+
#75
b1011 %
b1011 f
b1010 &
b1010 g
b1011 5"
b1001 (
b1001 i
b1010 <"
b1010 9"
b1011 6"
b1001 ="
b1010 >"
b1010 :"
b1011 ?"
b1011 ;"
b1011 7"
b1001 c
b1010 b
b1011 a
b1001 L
b1001 m
b1010 N
b1010 l
b1011 P
b1011 k
b1100 R
b1100 j
b1100 B"
b1001 %"
b1010 $"
b1011 #"
b1100 ""
b1001 N"
b11 ,
b11 *
1+
#80
0+
#85
b1110 %
b1110 f
b1101 &
b1101 g
b1110 5"
b1100 (
b1100 i
b1101 <"
b1101 9"
b1110 6"
b1100 ="
b1101 >"
b1101 :"
b1110 ?"
b1110 ;"
b1110 7"
b1100 c
b1101 b
b1110 a
b1100 L
b1100 m
b1101 N
b1101 l
b1110 P
b1110 k
b1111 R
b1111 j
b1111 B"
b1100 %"
b1101 $"
b1110 #"
b1111 ""
b1100 N"
b100 *
b100 ,
1+
#90
0+
#95
b10001 %
b10001 f
b10000 &
b10000 g
b10001 5"
b1111 (
b1111 i
b10000 <"
b10000 9"
b10001 6"
b1111 ="
b10000 >"
b10000 :"
b10001 ?"
b10001 ;"
b10001 7"
b1111 c
b10000 b
b10001 a
b1111 L
b1111 m
b10000 N
b10000 l
b10001 P
b10001 k
b10010 R
b10010 j
b10010 B"
b1111 %"
b10000 $"
b10001 #"
b10010 ""
b1111 N"
b101 ,
b101 *
1+
#100
0+
#105
b10100 %
b10100 f
b10011 &
b10011 g
b10100 5"
b10010 (
b10010 i
b10011 <"
b10011 9"
b10100 6"
b10010 ="
b10011 >"
b10011 :"
b10100 ?"
b10100 ;"
b10100 7"
b10010 c
b10011 b
b10100 a
b10010 L
b10010 m
b10011 N
b10011 l
b10100 P
b10100 k
b10101 R
b10101 j
b10101 B"
b10010 %"
b10011 $"
b10100 #"
b10101 ""
b10010 N"
b110 *
b110 ,
1+
#110
0+
#115
b10111 %
b10111 f
b10110 &
b10110 g
b10111 5"
b10101 (
b10101 i
b10110 <"
b10110 9"
b10111 6"
b10101 ="
b10110 >"
b10110 :"
b10111 ?"
b10111 ;"
b10111 7"
b10101 c
b10110 b
b10111 a
b10101 L
b10101 m
b10110 N
b10110 l
b10111 P
b10111 k
b11000 R
b11000 j
b11000 B"
b10101 %"
b10110 $"
b10111 #"
b11000 ""
b10101 N"
b111 ,
b111 *
1+
#120
0+
#125
b11010 %
b11010 f
b11001 &
b11001 g
b11010 5"
b11000 (
b11000 i
b11001 <"
b11001 9"
b11010 6"
b11000 ="
b11001 >"
b11001 :"
b11010 ?"
b11010 ;"
b11010 7"
b11000 c
b11001 b
b11010 a
b11000 L
b11000 m
b11001 N
b11001 l
b11010 P
b11010 k
b11011 R
b11011 j
b11011 B"
b11000 %"
b11001 $"
b11010 #"
b11011 ""
b11000 N"
b1000 *
b1000 ,
1+
#130
0+
#135
b11101 %
b11101 f
b11100 &
b11100 g
b11101 5"
b11011 (
b11011 i
b11100 <"
b11100 9"
b11101 6"
b11011 ="
b11100 >"
b11100 :"
b11101 ?"
b11101 ;"
b11101 7"
b11011 c
b11100 b
b11101 a
b11011 L
b11011 m
b11100 N
b11100 l
b11101 P
b11101 k
b11110 R
b11110 j
b11110 B"
b11011 %"
b11100 $"
b11101 #"
b11110 ""
b11011 N"
b1001 ,
b1001 *
1+
#140
0+
#145
b100000 %
b100000 f
b11111 &
b11111 g
b100000 5"
b11110 (
b11110 i
b11111 <"
b11111 9"
b100000 6"
b11110 ="
b11111 >"
b11111 :"
b100000 ?"
b100000 ;"
b100000 7"
b11110 c
b11111 b
b100000 a
b11110 L
b11110 m
b11111 N
b11111 l
b100000 P
b100000 k
b100001 R
b100001 j
b100001 B"
b11110 %"
b11111 $"
b100000 #"
b100001 ""
b11110 N"
b1010 *
b1010 ,
1+
#150
0+
#155
b100011 %
b100011 f
b100010 &
b100010 g
b100011 5"
b100001 (
b100001 i
b100010 <"
b100010 9"
b100011 6"
b100001 ="
b100010 >"
b100010 :"
b100011 ?"
b100011 ;"
b100011 7"
b100001 c
b100010 b
b100011 a
b100001 L
b100001 m
b100010 N
b100010 l
b100011 P
b100011 k
b100100 R
b100100 j
b100100 B"
b100001 %"
b100010 $"
b100011 #"
b100100 ""
b100001 N"
b1011 ,
b1011 *
1+
#160
0+
#165
b100110 %
b100110 f
b100101 &
b100101 g
b100110 5"
b100100 (
b100100 i
b100101 <"
b100101 9"
b100110 6"
b100100 ="
b100101 >"
b100101 :"
b100110 ?"
b100110 ;"
b100110 7"
b100100 c
b100101 b
b100110 a
b100100 L
b100100 m
b100101 N
b100101 l
b100110 P
b100110 k
b100111 R
b100111 j
b100111 B"
b100100 %"
b100101 $"
b100110 #"
b100111 ""
b100100 N"
b1100 *
b1100 ,
1+
#170
0+
#175
b101001 %
b101001 f
b101000 &
b101000 g
b101001 5"
b100111 (
b100111 i
b101000 <"
b101000 9"
b101001 6"
b100111 ="
b101000 >"
b101000 :"
b101001 ?"
b101001 ;"
b101001 7"
b100111 c
b101000 b
b101001 a
b100111 L
b100111 m
b101000 N
b101000 l
b101001 P
b101001 k
b101010 R
b101010 j
b101010 B"
b100111 %"
b101000 $"
b101001 #"
b101010 ""
b100111 N"
b1101 ,
b1101 *
1+
#180
0+
#185
b101100 %
b101100 f
b101011 &
b101011 g
b101100 5"
b101010 (
b101010 i
b101011 <"
b101011 9"
b101100 6"
b101010 ="
b101011 >"
b101011 :"
b101100 ?"
b101100 ;"
b101100 7"
b101010 c
b101011 b
b101100 a
b101010 L
b101010 m
b101011 N
b101011 l
b101100 P
b101100 k
b101101 R
b101101 j
b101101 B"
b101010 %"
b101011 $"
b101100 #"
b101101 ""
b101010 N"
b1110 *
b1110 ,
1+
#190
0+
#195
b101111 %
b101111 f
b101110 &
b101110 g
b101111 5"
b101101 (
b101101 i
b101110 <"
b101110 9"
b101111 6"
b101101 ="
b101110 >"
b101110 :"
b101111 ?"
b101111 ;"
b101111 7"
b101101 c
b101110 b
b101111 a
b101101 L
b101101 m
b101110 N
b101110 l
b101111 P
b101111 k
b110000 R
b110000 j
b110000 B"
b101101 %"
b101110 $"
b101111 #"
b110000 ""
b101101 N"
b1111 ,
b1111 *
1+
#200
0+
#205
b110010 %
b110010 f
b110001 &
b110001 g
b110010 5"
b110000 (
b110000 i
b110001 <"
b110001 9"
b110010 6"
b110000 ="
b110001 >"
b110001 :"
b110010 ?"
b110010 ;"
b110010 7"
b110000 c
b110001 b
b110010 a
b110000 L
b110000 m
b110001 N
b110001 l
b110010 P
b110010 k
b110011 R
b110011 j
b110011 B"
b110000 %"
b110001 $"
b110010 #"
b110011 ""
b110000 N"
b10000 *
b10000 ,
1+
#210
0+
#215
b110101 %
b110101 f
b110100 &
b110100 g
b110101 5"
b110011 (
b110011 i
b110100 <"
b110100 9"
b110101 6"
b110011 ="
b110100 >"
b110100 :"
b110101 ?"
b110101 ;"
b110101 7"
b110011 c
b110100 b
b110101 a
b110011 L
b110011 m
b110100 N
b110100 l
b110101 P
b110101 k
b110110 R
b110110 j
b110110 B"
b110011 %"
b110100 $"
b110101 #"
b110110 ""
b110011 N"
b10001 ,
b10001 *
1+
#220
0+
#225
b111000 %
b111000 f
b110111 &
b110111 g
b111000 5"
b110110 (
b110110 i
b110111 <"
b110111 9"
b111000 6"
b110110 ="
b110111 >"
b110111 :"
b111000 ?"
b111000 ;"
b111000 7"
b110110 c
b110111 b
b111000 a
b110110 L
b110110 m
b110111 N
b110111 l
b111000 P
b111000 k
b111001 R
b111001 j
b111001 B"
b110110 %"
b110111 $"
b111000 #"
b111001 ""
b110110 N"
b10010 *
b10010 ,
1+
#230
0+
#235
b111011 %
b111011 f
b111010 &
b111010 g
b111011 5"
b111001 (
b111001 i
b111010 <"
b111010 9"
b111011 6"
b111001 ="
b111010 >"
b111010 :"
b111011 ?"
b111011 ;"
b111011 7"
b111001 c
b111010 b
b111011 a
b111001 L
b111001 m
b111010 N
b111010 l
b111011 P
b111011 k
b111100 R
b111100 j
b111100 B"
b111001 %"
b111010 $"
b111011 #"
b111100 ""
b111001 N"
b10011 ,
b10011 *
1+
#240
0+
#245
b111110 %
b111110 f
b111101 &
b111101 g
b111110 5"
b111100 (
b111100 i
b111101 <"
b111101 9"
b111110 6"
b111100 ="
b111101 >"
b111101 :"
b111110 ?"
b111110 ;"
b111110 7"
b111100 c
b111101 b
b111110 a
b111100 L
b111100 m
b111101 N
b111101 l
b111110 P
b111110 k
b111111 R
b111111 j
b111111 B"
b111100 %"
b111101 $"
b111110 #"
b111111 ""
b111100 N"
b10100 *
b10100 ,
1+
#250
0+
#255
b1 %
b1 f
b0 &
b0 g
b1 5"
b111111 (
b111111 i
b0 <"
b0 9"
b1 6"
b111111 ="
b0 >"
b0 :"
b1 ?"
b1 ;"
b1 7"
b111111 c
b0 b
b1 a
b111111 L
b111111 m
b0 N
b0 l
b1 P
b1 k
b10 R
b10 j
b1000010 B"
b111111 %"
b1000000 $"
b1000001 #"
b1000010 ""
b111111 N"
b10101 ,
b10101 *
1+
#260
0+
#265
0!
0"
0,"
02"
0/"
0-"
b0 %
b0 f
03"
00"
04"
01"
0."
b0 &
b0 g
b0 5"
0X
0Y
0Z
0M
0O
0Q
b0 (
b0 i
b0 <"
b0 9"
b0 6"
0\
b0 ="
b0 >"
b0 :"
b0 ?"
b0 ;"
b0 7"
b0 c
b0 b
b0 a
1v
1C"
b10 L
b10 m
b11 N
b11 l
b100 P
b100 k
b101 R
b101 j
1)
b1000101 B"
b1000010 %"
b1000011 $"
b1000100 #"
b1000101 ""
b1000010 N"
b10110 *
b10110 ,
1+
#270
0+
#275
b10111 ,
b10111 *
1+
#280
0+
#285
b11000 *
b11000 ,
1+
#290
0+
#295
b11001 ,
b11001 *
1+
#300
0+
#305
b11010 *
b11010 ,
1+
#310
0+
#315
b11011 ,
b11011 *
1+
#320
0+
#325
b11100 *
b11100 ,
1+
#330
0+
#335
b11101 ,
b11101 *
1+
#340
0+
#345
b11110 *
b11110 ,
1+
#350
0+
#355
b11111 ,
b11111 *
1+
#360
0+
#365
b100000 *
b100000 ,
1+
#370
0+
#375
b100001 ,
b100001 *
1+
#380
0+
#385
b100010 *
b100010 ,
1+
#390
0+
#395
b100011 ,
b100011 *
1+
#400
0+
#405
b100100 *
b100100 ,
1+
#410
0+
#415
b100101 ,
b100101 *
1+
#420
0+
#425
b100110 *
b100110 ,
1+
#430
0+
#435
b100111 ,
b100111 *
1+
#440
0+
#445
b101000 *
b101000 ,
1+
#450
0+
#455
b101001 ,
b101001 *
1+
#460
0+
#465
b101010 *
b101010 ,
1+
#470
0+
#475
b101011 ,
b101011 *
1+
#480
0+
#485
b101100 *
b101100 ,
1+
#490
0+
#495
b101101 ,
b101101 *
1+
#500
0+
#505
b101110 *
b101110 ,
1+
#510
0+
#515
b101111 ,
b101111 *
1+
#520
0+
#525
b110000 *
b110000 ,
1+
#530
0+
#535
b110001 ,
b110001 *
1+
#540
0+
#545
b110010 *
b110010 ,
1+
#550
0+
#555
b110011 ,
b110011 *
1+
#560
0+
#565
b110100 *
b110100 ,
1+
#570
0+
#575
b110101 ,
b110101 *
1+
#580
0+
#585
b110110 *
b110110 ,
1+
#590
0+
#595
b110111 ,
b110111 *
1+
#600
0+
#605
b111000 *
b111000 ,
1+
#610
0+
#615
b111001 ,
b111001 *
1+
#620
0+
#625
b111010 *
b111010 ,
1+
#630
0+
#635
b111011 ,
b111011 *
1+
#640
0+
#645
b111100 *
b111100 ,
1+
#650
0+
#655
b111101 ,
b111101 *
1+
#660
0+
#665
b111110 *
b111110 ,
1+
#670
0+
#675
b111111 ,
b111111 *
1+
#680
0+
#685
b1000000 *
b1000000 ,
1+
#690
0+
#695
b1000001 ,
b1000001 *
1+
#700
0+
#705
b1000010 *
b1000010 ,
1+
#710
0+
#715
b1000011 ,
b1000011 *
1+
#720
0+
#725
b1000100 *
b1000100 ,
1+
#730
0+
#735
b1000101 ,
b1000101 *
1+
#740
0+
#745
b1000110 *
b1000110 ,
1+
#750
0+
#755
b1000111 ,
b1000111 *
1+
#760
0+
#765
b1001000 *
b1001000 ,
1+
#770
0+
#775
b1001001 ,
b1001001 *
1+
#780
0+
#785
b1001010 *
b1001010 ,
1+
#790
0+
#795
b1001011 ,
b1001011 *
1+
#800
0+
#805
b1001100 *
b1001100 ,
1+
#810
0+
#815
b1001101 ,
b1001101 *
1+
#820
0+
#825
b1001110 *
b1001110 ,
1+
#830
0+
#835
b1001111 ,
b1001111 *
1+
#840
0+
#845
b1010000 *
b1010000 ,
1+
#850
0+
#855
b1010001 ,
b1010001 *
1+
#860
0+
#865
b1010010 *
b1010010 ,
1+
#870
0+
#875
b1010011 ,
b1010011 *
1+
#880
0+
#885
b1010100 *
b1010100 ,
1+
#890
0+
#895
b1010101 ,
b1010101 *
1+
#900
0+
#905
b1010110 *
b1010110 ,
1+
#910
0+
#915
b1010111 ,
b1010111 *
1+
#920
0+
#925
b1011000 *
b1011000 ,
1+
#930
0+
#935
b1011001 ,
b1011001 *
1+
#940
0+
#945
b1011010 *
b1011010 ,
1+
#950
0+
#955
b1011011 ,
b1011011 *
1+
#960
0+
#965
b1011100 *
b1011100 ,
1+
#970
0+
#975
b1011101 ,
b1011101 *
1+
#980
0+
#985
b1011110 *
b1011110 ,
1+
#990
0+
#995
b1011111 ,
b1011111 *
1+
#1000
0+
#1005
b1100000 *
b1100000 ,
1+
#1010
0+
#1015
b1100001 ,
b1100001 *
1+
#1020
0+
#1025
b1100010 *
b1100010 ,
1+
#1030
0+
#1035
b1100011 ,
b1100011 *
1+
#1040
0+
#1045
b1100100 *
b1100100 ,
1+
#1050
0+
#1055
b1100101 ,
b1100101 *
1+
#1060
0+
#1065
b1100110 *
b1100110 ,
1+
#1070
0+
#1075
b1100111 ,
b1100111 *
1+
#1080
0+
#1085
b1101000 *
b1101000 ,
1+
#1090
0+
#1095
b1101001 ,
b1101001 *
1+
#1100
0+
#1105
b1101010 *
b1101010 ,
1+
#1110
0+
#1115
b1101011 ,
b1101011 *
1+
#1120
0+
#1125
b1101100 *
b1101100 ,
1+
#1130
0+
#1135
b1101101 ,
b1101101 *
1+
#1140
0+
#1145
b1101110 *
b1101110 ,
1+
#1150
0+
#1155
b1101111 ,
b1101111 *
1+
#1160
0+
#1165
b1110000 *
b1110000 ,
1+
#1170
0+
#1175
b1110001 ,
b1110001 *
1+
#1180
0+
#1185
b1110010 *
b1110010 ,
1+
#1190
0+
#1195
b1110011 ,
b1110011 *
1+
#1200
0+
#1205
b1110100 *
b1110100 ,
1+
#1210
0+
#1215
b1110101 ,
b1110101 *
1+
#1220
0+
#1225
b1110110 *
b1110110 ,
1+
#1230
0+
#1235
b1110111 ,
b1110111 *
1+
#1240
0+
#1245
b1111000 *
b1111000 ,
1+
#1250
0+
#1255
b1111001 ,
b1111001 *
1+
#1260
0+
#1265
b1111010 *
b1111010 ,
1+
#1270
0+
#1275
b1111011 ,
b1111011 *
1+
#1280
0+
#1285
b1111100 *
b1111100 ,
1+
#1290
0+
#1295
b1111101 ,
b1111101 *
1+
#1300
0+
#1305
b1111110 *
b1111110 ,
1+
#1310
0+
#1315
b1111111 ,
b1111111 *
1+
#1320
0+
#1325
b10000000 *
b10000000 ,
1+
#1330
0+
#1335
b10000001 ,
b10000001 *
1+
#1340
0+
#1345
b10000010 *
b10000010 ,
1+
#1350
0+
#1355
b10000011 ,
b10000011 *
1+
#1360
0+
#1365
b10000100 *
b10000100 ,
1+
#1370
0+
#1375
b10000101 ,
b10000101 *
1+
#1380
0+
#1385
b10000110 *
b10000110 ,
1+
#1390
0+
#1395
b10000111 ,
b10000111 *
1+
#1400
0+
#1405
b10001000 *
b10001000 ,
1+
#1410
0+
#1415
b10001001 ,
b10001001 *
1+
#1420
0+
#1425
b10001010 *
b10001010 ,
1+
#1430
0+
#1435
b10001011 ,
b10001011 *
1+
#1440
0+
#1445
b10001100 *
b10001100 ,
1+
#1450
0+
#1455
b10001101 ,
b10001101 *
1+
#1460
0+
#1465
b10001110 *
b10001110 ,
1+
#1470
0+
#1475
b10001111 ,
b10001111 *
1+
#1480
0+
#1485
b10010000 *
b10010000 ,
1+
#1490
0+
#1495
b10010001 ,
b10010001 *
1+
#1500
0+
#1505
b10010010 *
b10010010 ,
1+
#1510
0+
#1515
b10010011 ,
b10010011 *
1+
#1520
0+
#1525
b10010100 *
b10010100 ,
1+
#1530
0+
#1535
b10010101 ,
b10010101 *
1+
#1540
0+
#1545
b10010110 *
b10010110 ,
1+
#1550
0+
#1555
b10010111 ,
b10010111 *
1+
#1560
0+
#1565
b10011000 *
b10011000 ,
1+
#1570
0+
#1575
b10011001 ,
b10011001 *
1+
#1580
0+
#1585
b10011010 *
b10011010 ,
1+
#1590
0+
#1595
b10011011 ,
b10011011 *
1+
#1600
0+
#1605
b10011100 *
b10011100 ,
1+
#1610
0+
#1615
b10011101 ,
b10011101 *
1+
#1620
0+
#1625
b10011110 *
b10011110 ,
1+
#1630
0+
#1635
b10011111 ,
b10011111 *
1+
#1640
0+
#1645
b10100000 *
b10100000 ,
1+
#1650
0+
#1655
b10100001 ,
b10100001 *
1+
#1660
0+
#1665
b10100010 *
b10100010 ,
1+
#1670
0+
#1675
b10100011 ,
b10100011 *
1+
#1680
0+
#1685
b10100100 *
b10100100 ,
1+
#1690
0+
#1695
b10100101 ,
b10100101 *
1+
#1700
0+
#1705
b10100110 *
b10100110 ,
1+
#1710
0+
#1715
b10100111 ,
b10100111 *
1+
#1720
0+
#1725
b10101000 *
b10101000 ,
1+
#1730
0+
#1735
b10101001 ,
b10101001 *
1+
#1740
0+
#1745
b10101010 *
b10101010 ,
1+
#1750
0+
#1755
b10101011 ,
b10101011 *
1+
#1760
0+
#1765
b10101100 *
b10101100 ,
1+
#1770
0+
#1775
b10101101 ,
b10101101 *
1+
#1780
0+
#1785
b10101110 *
b10101110 ,
1+
#1790
0+
#1795
b10101111 ,
b10101111 *
1+
#1800
0+
#1805
b10110000 *
b10110000 ,
1+
#1810
0+
#1815
b10110001 ,
b10110001 *
1+
#1820
0+
#1825
b10110010 *
b10110010 ,
1+
#1830
0+
#1835
b10110011 ,
b10110011 *
1+
#1840
0+
#1845
b10110100 *
b10110100 ,
1+
#1850
0+
#1855
b10110101 ,
b10110101 *
1+
#1860
0+
#1865
b10110110 *
b10110110 ,
1+
#1870
0+
#1875
b10110111 ,
b10110111 *
1+
#1880
0+
#1885
b10111000 *
b10111000 ,
1+
#1890
0+
#1895
b10111001 ,
b10111001 *
1+
#1900
0+
#1905
b10111010 *
b10111010 ,
1+
#1910
0+
#1915
b10111011 ,
b10111011 *
1+
#1920
0+
#1925
b10111100 *
b10111100 ,
1+
#1930
0+
#1935
b10111101 ,
b10111101 *
1+
#1940
0+
#1945
b10111110 *
b10111110 ,
1+
#1950
0+
#1955
b10111111 ,
b10111111 *
1+
#1960
0+
#1965
b11000000 *
b11000000 ,
1+
