veri-sim/freelist/user/run/wave.vcd
$date
	Wed Sep 20 23:30:16 2023
$end
$version
	Icarus Verilog
$end
$timescale
	1s
$end
$scope module testbench $end
$var wire 1 ! io_pvld_3 $end
$var wire 1 " io_pvld_2 $end
$var wire 1 # io_pvld_1 $end
$var wire 1 $ io_pvld_0 $end
$var wire 6 % io_pidx_3 [5:0] $end
$var wire 6 & io_pidx_2 [5:0] $end
$var wire 6 ' io_pidx_1 [5:0] $end
$var wire 6 ( io_pidx_0 [5:0] $end
$var wire 1 ) io_busy $end
$var reg 32 * addr [31:0] $end
$var reg 1 + clock $end
$var reg 32 , data [31:0] $end
$var reg 1 - io_req_0 $end
$var reg 1 . io_req_1 $end
$var reg 1 / io_req_2 $end
$var reg 1 0 io_req_3 $end
$var reg 1 1 io_rls_0 $end
$var reg 1 2 io_rls_1 $end
$var reg 1 3 io_rls_2 $end
$var reg 1 4 io_rls_3 $end
$var reg 6 5 io_rls_pidx_0 [5:0] $end
$var reg 6 6 io_rls_pidx_1 [5:0] $end
$var reg 6 7 io_rls_pidx_2 [5:0] $end
$var reg 6 8 io_rls_pidx_3 [5:0] $end
$var reg 1 9 reset $end
$scope module u_freelist $end
$var wire 1 + clock $end
$var wire 1 : full $end
$var wire 1 ; idx_r_MPORT_1_en $end
$var wire 1 < idx_r_MPORT_1_mask $end
$var wire 1 = idx_r_MPORT_2_en $end
$var wire 1 > idx_r_MPORT_2_mask $end
$var wire 1 ? idx_r_MPORT_3_en $end
$var wire 1 @ idx_r_MPORT_3_mask $end
$var wire 1 A idx_r_MPORT_en $end
$var wire 1 B idx_r_MPORT_mask $end
$var wire 6 C idx_r_rd_pidx_0_MPORT_data [5:0] $end
$var wire 1 D idx_r_rd_pidx_0_MPORT_en $end
$var wire 6 E idx_r_rd_pidx_1_MPORT_data [5:0] $end
$var wire 1 F idx_r_rd_pidx_1_MPORT_en $end
$var wire 6 G idx_r_rd_pidx_2_MPORT_data [5:0] $end
$var wire 1 H idx_r_rd_pidx_2_MPORT_en $end
$var wire 6 I idx_r_rd_pidx_3_MPORT_data [5:0] $end
$var wire 1 J idx_r_rd_pidx_3_MPORT_en $end
$var wire 1 $ io_pvld_0 $end
$var wire 1 # io_pvld_1 $end
$var wire 1 " io_pvld_2 $end
$var wire 1 - io_req_0 $end
$var wire 1 . io_req_1 $end
$var wire 1 / io_req_2 $end
$var wire 1 0 io_req_3 $end
$var wire 1 1 io_rls_0 $end
$var wire 1 2 io_rls_1 $end
$var wire 1 3 io_rls_2 $end
$var wire 1 4 io_rls_3 $end
$var wire 6 K io_rls_pidx_0 [5:0] $end
$var wire 6 L io_rls_pidx_1 [5:0] $end
$var wire 6 M io_rls_pidx_2 [5:0] $end
$var wire 6 N io_rls_pidx_3 [5:0] $end
$var wire 1 O rd_pvld_0 $end
$var wire 1 P rd_pvld_1 $end
$var wire 1 Q rd_pvld_2 $end
$var wire 1 R rd_pvld_3 $end
$var wire 1 S re $end
$var wire 1 9 reset $end
$var wire 1 T we $end
$var wire 2 U w_pidx_sum [1:0] $end
$var wire 4 V w_onehot [3:0] $end
$var wire 6 W rd_pidx_3 [5:0] $end
$var wire 6 X rd_pidx_2 [5:0] $end
$var wire 6 Y rd_pidx_1 [5:0] $end
$var wire 6 Z rd_pidx_0 [5:0] $end
$var wire 2 [ r_pidx_sum [1:0] $end
$var wire 4 \ r_onehot [3:0] $end
$var wire 1 ! io_pvld_3 $end
$var wire 6 ] io_pidx_3 [5:0] $end
$var wire 6 ^ io_pidx_2 [5:0] $end
$var wire 6 _ io_pidx_1 [5:0] $end
$var wire 6 ` io_pidx_0 [5:0] $end
$var wire 1 ) io_busy $end
$var wire 6 a idx_r_rd_pidx_3_MPORT_addr [5:0] $end
$var wire 6 b idx_r_rd_pidx_2_MPORT_addr [5:0] $end
$var wire 6 c idx_r_rd_pidx_1_MPORT_addr [5:0] $end
$var wire 6 d idx_r_rd_pidx_0_MPORT_addr [5:0] $end
$var wire 6 e idx_r_MPORT_data [5:0] $end
$var wire 6 f idx_r_MPORT_addr [5:0] $end
$var wire 6 g idx_r_MPORT_3_data [5:0] $end
$var wire 6 h idx_r_MPORT_3_addr [5:0] $end
$var wire 6 i idx_r_MPORT_2_data [5:0] $end
$var wire 6 j idx_r_MPORT_2_addr [5:0] $end
$var wire 6 k idx_r_MPORT_1_data [5:0] $end
$var wire 6 l idx_r_MPORT_1_addr [5:0] $end
$var wire 1 m empty $end
$var wire 6 n _wr_pidx_0_T_2 [5:0] $end
$var wire 6 o _wr_pidx_0_T_1 [5:0] $end
$var wire 6 p _wr_pidx_0_T [5:0] $end
$var wire 1 q _w_pidx_sum_T_5 $end
$var wire 1 r _w_pidx_sum_T_3 $end
$var wire 1 s _w_pidx_sum_T_1 $end
$var wire 1 t _w_onehot_T_2 $end
$var wire 1 u _w_onehot_T_1 $end
$var wire 1 v _w_onehot_T $end
$var wire 7 w _rd_pidx_3_T_1 [6:0] $end
$var wire 7 x _rd_pidx_2_T_1 [6:0] $end
$var wire 7 y _rd_pidx_1_T_1 [6:0] $end
$var wire 8 z _rd_pidx_0_T [7:0] $end
$var wire 1 { _r_pidx_sum_T_5 $end
$var wire 1 | _r_pidx_sum_T_3 $end
$var wire 1 } _r_pidx_sum_T_1 $end
$var wire 1 ~ _r_onehot_T_2 $end
$var wire 1 !" _r_onehot_T_1 $end
$var wire 1 "" _r_onehot_T $end
$var wire 6 #" _io_pidx_0_T_6 [5:0] $end
$var wire 6 $" _io_pidx_0_T_5 [5:0] $end
$var wire 6 %" _io_pidx_0_T_4 [5:0] $end
$var wire 7 &" _idx_wptr_T_1 [6:0] $end
$var wire 7 '" _idx_rptr_T_1 [6:0] $end
$var wire 1 (" _full_T_5 $end
$var wire 7 )" _T_24 [6:0] $end
$var wire 8 *" _T_2 [7:0] $end
$var wire 7 +" _T_17 [6:0] $end
$var wire 7 ," _T_10 [6:0] $end
$var wire 7 -" _GEN_39 [6:0] $end
$var wire 7 ." _GEN_38 [6:0] $end
$var reg 7 /" idx_rptr [6:0] $end
$var reg 7 0" idx_wptr [6:0] $end
$upscope $end
$upscope $end
$enddefinitions $end
#0
$dumpvars
bx 0"
bx /"
b0 ."
b0 -"
bx ,"
bx +"
b0xxxxxxx *"
bx )"
x("
bx '"
bx &"
b0 %"
b0 $"
b0 #"
0""
0!"
0~
0}
0|
0{
b0xxxxxxx z
bx y
bx x
bx w
0v
0u
0t
0s
0r
0q
b0 p
b0 o
b0 n
xm
bx l
b0 k
bx j
b0 i
bx h
b0 g
bx f
b0 e
bx d
bx c
bx b
bx a
b0 `
b0 _
b0 ^
b0 ]
b0 \
b0 [
b0 Z
b0 Y
b0 X
b0 W
b0 V
b0 U
0T
0S
0R
0Q
0P
0O
b0 N
b0 M
b0 L
b0 K
0J
bx I
0H
bx G
0F
bx E
0D
bx C
1B
0A
1@
0?
1>
0=
1<
0;
x:
19
b0 8
b0 7
b0 6
b0 5
04
03
02
01
00
0/
0.
0-
b0 ,
0+
b0 *
x)
b0 (
b0 '
b0 &
b0 %
0$
0#
0"
0!
$end
#5
0:
0m
0("
b111111 f
b0 l
b1 j
b10 h
0)
b0 C
b0 d
b1 E
b1 c
b10 G
b10 b
b11 I
b11 a
b111111 &"
b111111 *"
b1000000 ,"
b1000001 +"
b1000010 )"
b111111 0"
b0 '"
b0 z
b1 y
b10 x
b11 w
b0 /"
1+
#10
0+
#15
1+
#20
0+
#25
1+
#30
0+
#35
1+
#40
0+
#45
1+
#50
1O
1D
1S
1$
b1 \
1""
b1 '"
b1 ."
b1 [
1{
1|
1}
1-
0+
09
#55
b1 (
b1 `
b1 Z
b1 C
b1 d
b10 E
b10 c
b11 G
b11 b
b100 I
b100 a
b10 '"
b1 z
b10 y
b11 x
b100 w
b1 /"
b1 ,
b1 *
1+
#60
0+
#65
b10 (
b10 `
b10 Z
b10 C
b10 d
b11 E
b11 c
b100 G
b100 b
b101 I
b101 a
b11 '"
b10 z
b11 y
b100 x
b101 w
b10 /"
b10 *
b10 ,
1+
#70
0+
#75
b11 (
b11 `
b11 Z
b11 C
b11 d
b100 E
b100 c
b101 G
b101 b
b110 I
b110 a
b100 '"
b11 z
b100 y
b101 x
b110 w
b11 /"
b11 ,
b11 *
1+
#80
0+
#85
b100 (
b100 `
b100 Z
b100 C
b100 d
b101 E
b101 c
b110 G
b110 b
b111 I
b111 a
b101 '"
b100 z
b101 y
b110 x
b111 w
b100 /"
b100 *
b100 ,
1+
#90
0+
#95
b101 (
b101 `
b101 Z
b101 C
b101 d
b110 E
b110 c
b111 G
b111 b
b1000 I
b1000 a
b110 '"
b101 z
b110 y
b111 x
b1000 w
b101 /"
b101 ,
b101 *
1+
#100
0+
#105
b110 (
b110 `
b110 Z
b110 C
b110 d
b111 E
b111 c
b1000 G
b1000 b
b1001 I
b1001 a
b111 '"
b110 z
b111 y
b1000 x
b1001 w
b110 /"
b110 *
b110 ,
1+
#110
0+
#115
b111 (
b111 `
b111 Z
b111 C
b111 d
b1000 E
b1000 c
b1001 G
b1001 b
b1010 I
b1010 a
b1000 '"
b111 z
b1000 y
b1001 x
b1010 w
b111 /"
b111 ,
b111 *
1+
#120
0+
#125
b1000 (
b1000 `
b1000 Z
b1000 C
b1000 d
b1001 E
b1001 c
b1010 G
b1010 b
b1011 I
b1011 a
b1001 '"
b1000 z
b1001 y
b1010 x
b1011 w
b1000 /"
b1000 *
b1000 ,
1+
#130
0+
#135
b1001 (
b1001 `
b1001 Z
b1001 C
b1001 d
b1010 E
b1010 c
b1011 G
b1011 b
b1100 I
b1100 a
b1010 '"
b1001 z
b1010 y
b1011 x
b1100 w
b1001 /"
b1001 ,
b1001 *
1+
#140
0+
#145
b1010 (
b1010 `
b1010 Z
b1010 C
b1010 d
b1011 E
b1011 c
b1100 G
b1100 b
b1101 I
b1101 a
b1011 '"
b1010 z
b1011 y
b1100 x
b1101 w
b1010 /"
b1010 *
b1010 ,
1+
#150
0+
#155
b1011 (
b1011 `
b1011 Z
b1011 C
b1011 d
b1100 E
b1100 c
b1101 G
b1101 b
b1110 I
b1110 a
b1100 '"
b1011 z
b1100 y
b1101 x
b1110 w
b1011 /"
b1011 ,
b1011 *
1+
#160
0+
#165
b1100 (
b1100 `
b1100 Z
b1100 C
b1100 d
b1101 E
b1101 c
b1110 G
b1110 b
b1111 I
b1111 a
b1101 '"
b1100 z
b1101 y
b1110 x
b1111 w
b1100 /"
b1100 *
b1100 ,
1+
#170
0+
#175
b1101 (
b1101 `
b1101 Z
b1101 C
b1101 d
b1110 E
b1110 c
b1111 G
b1111 b
b10000 I
b10000 a
b1110 '"
b1101 z
b1110 y
b1111 x
b10000 w
b1101 /"
b1101 ,
b1101 *
1+
#180
0+
#185
b1110 (
b1110 `
b1110 Z
b1110 C
b1110 d
b1111 E
b1111 c
b10000 G
b10000 b
b10001 I
b10001 a
b1111 '"
b1110 z
b1111 y
b10000 x
b10001 w
b1110 /"
b1110 *
b1110 ,
1+
#190
0+
#195
b1111 (
b1111 `
b1111 Z
b1111 C
b1111 d
b10000 E
b10000 c
b10001 G
b10001 b
b10010 I
b10010 a
b10000 '"
b1111 z
b10000 y
b10001 x
b10010 w
b1111 /"
b1111 ,
b1111 *
1+
#200
0+
#205
b10000 (
b10000 `
b10000 Z
b10000 C
b10000 d
b10001 E
b10001 c
b10010 G
b10010 b
b10011 I
b10011 a
b10001 '"
b10000 z
b10001 y
b10010 x
b10011 w
b10000 /"
b10000 *
b10000 ,
1+
#210
0+
#215
b10001 (
b10001 `
b10001 Z
b10001 C
b10001 d
b10010 E
b10010 c
b10011 G
b10011 b
b10100 I
b10100 a
b10010 '"
b10001 z
b10010 y
b10011 x
b10100 w
b10001 /"
b10001 ,
b10001 *
1+
#220
0+
#225
b10010 (
b10010 `
b10010 Z
b10010 C
b10010 d
b10011 E
b10011 c
b10100 G
b10100 b
b10101 I
b10101 a
b10011 '"
b10010 z
b10011 y
b10100 x
b10101 w
b10010 /"
b10010 *
b10010 ,
1+
#230
0+
#235
b10011 (
b10011 `
b10011 Z
b10011 C
b10011 d
b10100 E
b10100 c
b10101 G
b10101 b
b10110 I
b10110 a
b10100 '"
b10011 z
b10100 y
b10101 x
b10110 w
b10011 /"
b10011 ,
b10011 *
1+
#240
0+
#245
b10100 (
b10100 `
b10100 Z
b10100 C
b10100 d
b10101 E
b10101 c
b10110 G
b10110 b
b10111 I
b10111 a
b10101 '"
b10100 z
b10101 y
b10110 x
b10111 w
b10100 /"
b10100 *
b10100 ,
1+
#250
0+
#255
b10101 (
b10101 `
b10101 Z
b10101 C
b10101 d
b10110 E
b10110 c
b10111 G
b10111 b
b11000 I
b11000 a
b10110 '"
b10101 z
b10110 y
b10111 x
b11000 w
b10101 /"
b10101 ,
b10101 *
1+
#260
0+
#265
b10110 (
b10110 `
b10110 Z
b10110 C
b10110 d
b10111 E
b10111 c
b11000 G
b11000 b
b11001 I
b11001 a
b10111 '"
b10110 z
b10111 y
b11000 x
b11001 w
b10110 /"
b10110 *
b10110 ,
1+
#270
0+
#275
b10111 (
b10111 `
b10111 Z
b10111 C
b10111 d
b11000 E
b11000 c
b11001 G
b11001 b
b11010 I
b11010 a
b11000 '"
b10111 z
b11000 y
b11001 x
b11010 w
b10111 /"
b10111 ,
b10111 *
1+
#280
0+
#285
b11000 (
b11000 `
b11000 Z
b11000 C
b11000 d
b11001 E
b11001 c
b11010 G
b11010 b
b11011 I
b11011 a
b11001 '"
b11000 z
b11001 y
b11010 x
b11011 w
b11000 /"
b11000 *
b11000 ,
1+
#290
0+
#295
b11001 (
b11001 `
b11001 Z
b11001 C
b11001 d
b11010 E
b11010 c
b11011 G
b11011 b
b11100 I
b11100 a
b11010 '"
b11001 z
b11010 y
b11011 x
b11100 w
b11001 /"
b11001 ,
b11001 *
1+
#300
0+
#305
b11010 (
b11010 `
b11010 Z
b11010 C
b11010 d
b11011 E
b11011 c
b11100 G
b11100 b
b11101 I
b11101 a
b11011 '"
b11010 z
b11011 y
b11100 x
b11101 w
b11010 /"
b11010 *
b11010 ,
1+
#310
0+
#315
b11011 (
b11011 `
b11011 Z
b11011 C
b11011 d
b11100 E
b11100 c
b11101 G
b11101 b
b11110 I
b11110 a
b11100 '"
b11011 z
b11100 y
b11101 x
b11110 w
b11011 /"
b11011 ,
b11011 *
1+
#320
0+
#325
b11100 (
b11100 `
b11100 Z
b11100 C
b11100 d
b11101 E
b11101 c
b11110 G
b11110 b
b11111 I
b11111 a
b11101 '"
b11100 z
b11101 y
b11110 x
b11111 w
b11100 /"
b11100 *
b11100 ,
1+
#330
0+
#335
b11101 (
b11101 `
b11101 Z
b11101 C
b11101 d
b11110 E
b11110 c
b11111 G
b11111 b
b100000 I
b100000 a
b11110 '"
b11101 z
b11110 y
b11111 x
b100000 w
b11101 /"
b11101 ,
b11101 *
1+
#340
0+
#345
b11110 (
b11110 `
b11110 Z
b11110 C
b11110 d
b11111 E
b11111 c
b100000 G
b100000 b
b100001 I
b100001 a
b11111 '"
b11110 z
b11111 y
b100000 x
b100001 w
b11110 /"
b11110 *
b11110 ,
1+
#350
0+
#355
b11111 (
b11111 `
b11111 Z
b11111 C
b11111 d
b100000 E
b100000 c
b100001 G
b100001 b
b100010 I
b100010 a
b100000 '"
b11111 z
b100000 y
b100001 x
b100010 w
b11111 /"
b11111 ,
b11111 *
1+
#360
0+
#365
b100000 (
b100000 `
b100000 Z
b100000 C
b100000 d
b100001 E
b100001 c
b100010 G
b100010 b
b100011 I
b100011 a
b100001 '"
b100000 z
b100001 y
b100010 x
b100011 w
b100000 /"
b100000 *
b100000 ,
1+
#370
0+
#375
b100001 (
b100001 `
b100001 Z
b100001 C
b100001 d
b100010 E
b100010 c
b100011 G
b100011 b
b100100 I
b100100 a
b100010 '"
b100001 z
b100010 y
b100011 x
b100100 w
b100001 /"
b100001 ,
b100001 *
1+
#380
0+
#385
b100010 (
b100010 `
b100010 Z
b100010 C
b100010 d
b100011 E
b100011 c
b100100 G
b100100 b
b100101 I
b100101 a
b100011 '"
b100010 z
b100011 y
b100100 x
b100101 w
b100010 /"
b100010 *
b100010 ,
1+
#390
0+
#395
b100011 (
b100011 `
b100011 Z
b100011 C
b100011 d
b100100 E
b100100 c
b100101 G
b100101 b
b100110 I
b100110 a
b100100 '"
b100011 z
b100100 y
b100101 x
b100110 w
b100011 /"
b100011 ,
b100011 *
1+
#400
0+
#405
b100100 (
b100100 `
b100100 Z
b100100 C
b100100 d
b100101 E
b100101 c
b100110 G
b100110 b
b100111 I
b100111 a
b100101 '"
b100100 z
b100101 y
b100110 x
b100111 w
b100100 /"
b100100 *
b100100 ,
1+
#410
0+
#415
b100101 (
b100101 `
b100101 Z
b100101 C
b100101 d
b100110 E
b100110 c
b100111 G
b100111 b
b101000 I
b101000 a
b100110 '"
b100101 z
b100110 y
b100111 x
b101000 w
b100101 /"
b100101 ,
b100101 *
1+
#420
0+
#425
b100110 (
b100110 `
b100110 Z
b100110 C
b100110 d
b100111 E
b100111 c
b101000 G
b101000 b
b101001 I
b101001 a
b100111 '"
b100110 z
b100111 y
b101000 x
b101001 w
b100110 /"
b100110 *
b100110 ,
1+
#430
0+
#435
b100111 (
b100111 `
b100111 Z
b100111 C
b100111 d
b101000 E
b101000 c
b101001 G
b101001 b
b101010 I
b101010 a
b101000 '"
b100111 z
b101000 y
b101001 x
b101010 w
b100111 /"
b100111 ,
b100111 *
1+
#440
0+
#445
b101000 (
b101000 `
b101000 Z
b101000 C
b101000 d
b101001 E
b101001 c
b101010 G
b101010 b
b101011 I
b101011 a
b101001 '"
b101000 z
b101001 y
b101010 x
b101011 w
b101000 /"
b101000 *
b101000 ,
1+
#450
0+
#455
b101001 (
b101001 `
b101001 Z
b101001 C
b101001 d
b101010 E
b101010 c
b101011 G
b101011 b
b101100 I
b101100 a
b101010 '"
b101001 z
b101010 y
b101011 x
b101100 w
b101001 /"
b101001 ,
b101001 *
1+
#460
0+
#465
b101010 (
b101010 `
b101010 Z
b101010 C
b101010 d
b101011 E
b101011 c
b101100 G
b101100 b
b101101 I
b101101 a
b101011 '"
b101010 z
b101011 y
b101100 x
b101101 w
b101010 /"
b101010 *
b101010 ,
1+
#470
0+
#475
b101011 (
b101011 `
b101011 Z
b101011 C
b101011 d
b101100 E
b101100 c
b101101 G
b101101 b
b101110 I
b101110 a
b101100 '"
b101011 z
b101100 y
b101101 x
b101110 w
b101011 /"
b101011 ,
b101011 *
1+
#480
0+
#485
b101100 (
b101100 `
b101100 Z
b101100 C
b101100 d
b101101 E
b101101 c
b101110 G
b101110 b
b101111 I
b101111 a
b101101 '"
b101100 z
b101101 y
b101110 x
b101111 w
b101100 /"
b101100 *
b101100 ,
1+
#490
0+
#495
b101101 (
b101101 `
b101101 Z
b101101 C
b101101 d
b101110 E
b101110 c
b101111 G
b101111 b
b110000 I
b110000 a
b101110 '"
b101101 z
b101110 y
b101111 x
b110000 w
b101101 /"
b101101 ,
b101101 *
1+
#500
0+
#505
b101110 (
b101110 `
b101110 Z
b101110 C
b101110 d
b101111 E
b101111 c
b110000 G
b110000 b
b110001 I
b110001 a
b101111 '"
b101110 z
b101111 y
b110000 x
b110001 w
b101110 /"
b101110 *
b101110 ,
1+
#510
0+
#515
b101111 (
b101111 `
b101111 Z
b101111 C
b101111 d
b110000 E
b110000 c
b110001 G
b110001 b
b110010 I
b110010 a
b110000 '"
b101111 z
b110000 y
b110001 x
b110010 w
b101111 /"
b101111 ,
b101111 *
1+
#520
0+
#525
b110000 (
b110000 `
b110000 Z
b110000 C
b110000 d
b110001 E
b110001 c
b110010 G
b110010 b
b110011 I
b110011 a
b110001 '"
b110000 z
b110001 y
b110010 x
b110011 w
b110000 /"
b110000 *
b110000 ,
1+
#530
0+
#535
b110001 (
b110001 `
b110001 Z
b110001 C
b110001 d
b110010 E
b110010 c
b110011 G
b110011 b
b110100 I
b110100 a
b110010 '"
b110001 z
b110010 y
b110011 x
b110100 w
b110001 /"
b110001 ,
b110001 *
1+
#540
0+
#545
b110010 (
b110010 `
b110010 Z
b110010 C
b110010 d
b110011 E
b110011 c
b110100 G
b110100 b
b110101 I
b110101 a
b110011 '"
b110010 z
b110011 y
b110100 x
b110101 w
b110010 /"
b110010 *
b110010 ,
1+
#550
0+
#555
b110011 (
b110011 `
b110011 Z
b110011 C
b110011 d
b110100 E
b110100 c
b110101 G
b110101 b
b110110 I
b110110 a
b110100 '"
b110011 z
b110100 y
b110101 x
b110110 w
b110011 /"
b110011 ,
b110011 *
1+
#560
0+
#565
b110100 (
b110100 `
b110100 Z
b110100 C
b110100 d
b110101 E
b110101 c
b110110 G
b110110 b
b110111 I
b110111 a
b110101 '"
b110100 z
b110101 y
b110110 x
b110111 w
b110100 /"
b110100 *
b110100 ,
1+
#570
0+
#575
b110101 (
b110101 `
b110101 Z
b110101 C
b110101 d
b110110 E
b110110 c
b110111 G
b110111 b
b111000 I
b111000 a
b110110 '"
b110101 z
b110110 y
b110111 x
b111000 w
b110101 /"
b110101 ,
b110101 *
1+
#580
0+
#585
b110110 (
b110110 `
b110110 Z
b110110 C
b110110 d
b110111 E
b110111 c
b111000 G
b111000 b
b111001 I
b111001 a
b110111 '"
b110110 z
b110111 y
b111000 x
b111001 w
b110110 /"
b110110 *
b110110 ,
1+
#590
0+
#595
b110111 (
b110111 `
b110111 Z
b110111 C
b110111 d
b111000 E
b111000 c
b111001 G
b111001 b
b111010 I
b111010 a
b111000 '"
b110111 z
b111000 y
b111001 x
b111010 w
b110111 /"
b110111 ,
b110111 *
1+
#600
0+
#605
b111000 (
b111000 `
b111000 Z
b111000 C
b111000 d
b111001 E
b111001 c
b111010 G
b111010 b
b111011 I
b111011 a
b111001 '"
b111000 z
b111001 y
b111010 x
b111011 w
b111000 /"
b111000 *
b111000 ,
1+
#610
0+
#615
b111001 (
b111001 `
b111001 Z
b111001 C
b111001 d
b111010 E
b111010 c
b111011 G
b111011 b
b111100 I
b111100 a
b111010 '"
b111001 z
b111010 y
b111011 x
b111100 w
b111001 /"
b111001 ,
b111001 *
1+
#620
0+
#625
b111010 (
b111010 `
b111010 Z
b111010 C
b111010 d
b111011 E
b111011 c
b111100 G
b111100 b
b111101 I
b111101 a
b111011 '"
b111010 z
b111011 y
b111100 x
b111101 w
b111010 /"
b111010 *
b111010 ,
1+
#630
0+
#635
b111011 (
b111011 `
b111011 Z
b111011 C
b111011 d
b111100 E
b111100 c
b111101 G
b111101 b
b111110 I
b111110 a
b111100 '"
b111011 z
b111100 y
b111101 x
b111110 w
b111011 /"
b111011 ,
b111011 *
1+
#640
0+
#645
b111100 (
b111100 `
b111100 Z
b111100 C
b111100 d
b111101 E
b111101 c
b111110 G
b111110 b
b111111 I
b111111 a
b111101 '"
b111100 z
b111101 y
b111110 x
b111111 w
b111100 /"
b111100 *
b111100 ,
1+
#650
0+
#655
b111101 (
b111101 `
b111101 Z
b111101 C
b111101 d
b111110 E
b111110 c
b111111 G
b111111 b
b0 I
b0 a
b111110 '"
b111101 z
b111110 y
b111111 x
b1000000 w
b111101 /"
b111101 ,
b111101 *
1+
#660
0+
#665
0O
0D
0S
b0 (
b0 `
b0 Z
1m
1("
b111110 C
b111110 d
b111111 E
b111111 c
b0 G
b0 b
b1 I
b1 a
1)
b111111 '"
b111110 z
b111111 y
b1000000 x
b1000001 w
b111110 /"
b111110 *
b111110 ,
1+
#670
0+
#675
b111111 ,
b111111 *
1+
#680
0+
#685
b1000000 *
b1000000 ,
1+
#690
0+
#695
b1000001 ,
b1000001 *
1+
#700
0+
#705
b1000010 *
b1000010 ,
1+
#710
0+
#715
b1000011 ,
b1000011 *
1+
#720
0+
#725
b1000100 *
b1000100 ,
1+
#730
0+
#735
b1000101 ,
b1000101 *
1+
#740
0+
#745
b1000110 *
b1000110 ,
1+
#750
0+
#755
b1000111 ,
b1000111 *
1+
#760
0+
#765
b1001000 *
b1001000 ,
1+
#770
0+
#775
b1001001 ,
b1001001 *
1+
#780
0+
#785
b1001010 *
b1001010 ,
1+
#790
0+
#795
b1001011 ,
b1001011 *
1+
#800
0+
#805
b1001100 *
b1001100 ,
1+
#810
0+
#815
b1001101 ,
b1001101 *
1+
#820
0+
#825
b1001110 *
b1001110 ,
1+
#830
0+
#835
b1001111 ,
b1001111 *
1+
#840
0+
#845
b1010000 *
b1010000 ,
1+
#850
0+
#855
b1010001 ,
b1010001 *
1+
#860
0+
#865
b1010010 *
b1010010 ,
1+
#870
0+
#875
b1010011 ,
b1010011 *
1+
#880
0+
#885
b1010100 *
b1010100 ,
1+
#890
0+
#895
b1010101 ,
b1010101 *
1+
#900
0+
#905
b1010110 *
b1010110 ,
1+
#910
0+
#915
b1010111 ,
b1010111 *
1+
#920
0+
#925
b1011000 *
b1011000 ,
1+
#930
0+
#935
b1011001 ,
b1011001 *
1+
#940
0+
#945
b1011010 *
b1011010 ,
1+
#950
0+
#955
b1011011 ,
b1011011 *
1+
#960
0+
#965
b1011100 *
b1011100 ,
1+
#970
0+
#975
b1011101 ,
b1011101 *
1+
#980
0+
#985
b1011110 *
b1011110 ,
1+
#990
0+
#995
b1011111 ,
b1011111 *
1+
#1000
0+
#1005
b1100000 *
b1100000 ,
1+
#1010
0+
#1015
b1100001 ,
b1100001 *
1+
#1020
0+
#1025
b1100010 *
b1100010 ,
1+
#1030
0+
#1035
b1100011 ,
b1100011 *
1+
#1040
0+
#1045
b1100100 *
b1100100 ,
1+
#1050
0+
#1055
b1100101 ,
b1100101 *
1+
#1060
0+
#1065
b1100110 *
b1100110 ,
1+
#1070
0+
#1075
b1100111 ,
b1100111 *
1+
#1080
0+
#1085
b1101000 *
b1101000 ,
1+
#1090
0+
#1095
b1101001 ,
b1101001 *
1+
#1100
0+
#1105
b1101010 *
b1101010 ,
1+
#1110
0+
#1115
b1101011 ,
b1101011 *
1+
#1120
0+
#1125
b1101100 *
b1101100 ,
1+
#1130
0+
#1135
b1101101 ,
b1101101 *
1+
#1140
0+
#1145
b1101110 *
b1101110 ,
1+
#1150
0+
#1155
b1101111 ,
b1101111 *
1+
#1160
0+
#1165
b1110000 *
b1110000 ,
1+
#1170
0+
#1175
b1110001 ,
b1110001 *
1+
#1180
0+
#1185
b1110010 *
b1110010 ,
1+
#1190
0+
#1195
b1110011 ,
b1110011 *
1+
#1200
0+
#1205
b1110100 *
b1110100 ,
1+
#1210
0+
#1215
b1110101 ,
b1110101 *
1+
#1220
0+
#1225
b1110110 *
b1110110 ,
1+
#1230
0+
#1235
b1110111 ,
b1110111 *
1+
#1240
0+
#1245
b1111000 *
b1111000 ,
1+
#1250
0+
#1255
b1111001 ,
b1111001 *
1+
#1260
0+
#1265
b1111010 *
b1111010 ,
1+
#1270
0+
#1275
b1111011 ,
b1111011 *
1+
#1280
0+
#1285
b1111100 *
b1111100 ,
1+
#1290
0+
#1295
b1111101 ,
b1111101 *
1+
#1300
0+
#1305
b1111110 *
b1111110 ,
1+
#1310
0+
#1315
b1111111 ,
b1111111 *
1+
#1320
0+
#1325
b10000000 *
b10000000 ,
1+
#1330
0+
#1335
b10000001 ,
b10000001 *
1+
#1340
0+
#1345
b10000010 *
b10000010 ,
1+
#1350
0+
#1355
b10000011 ,
b10000011 *
1+
#1360
0+
#1365
b10000100 *
b10000100 ,
1+
#1370
0+
#1375
b10000101 ,
b10000101 *
1+
#1380
0+
#1385
b10000110 *
b10000110 ,
1+
#1390
0+
#1395
b10000111 ,
b10000111 *
1+
#1400
0+
#1405
b10001000 *
b10001000 ,
1+
#1410
0+
#1415
b10001001 ,
b10001001 *
1+
#1420
0+
#1425
b10001010 *
b10001010 ,
1+
#1430
0+
#1435
b10001011 ,
b10001011 *
1+
#1440
0+
#1445
b10001100 *
b10001100 ,
1+
#1450
0+
#1455
b10001101 ,
b10001101 *
1+
#1460
0+
#1465
b10001110 *
b10001110 ,
1+
#1470
0+
#1475
b10001111 ,
b10001111 *
1+
#1480
0+
#1485
b10010000 *
b10010000 ,
1+
#1490
0+
#1495
b10010001 ,
b10010001 *
1+
#1500
0+
#1505
b10010010 *
b10010010 ,
1+
#1510
0+
#1515
b10010011 ,
b10010011 *
1+
#1520
0+
#1525
b10010100 *
b10010100 ,
1+
#1530
0+
#1535
b10010101 ,
b10010101 *
1+
#1540
0+
#1545
b10010110 *
b10010110 ,
1+
#1550
0+
#1555
b10010111 ,
b10010111 *
1+
#1560
0+
#1565
b10011000 *
b10011000 ,
1+
#1570
0+
#1575
b10011001 ,
b10011001 *
1+
#1580
0+
#1585
b10011010 *
b10011010 ,
1+
#1590
0+
#1595
b10011011 ,
b10011011 *
1+
#1600
0+
#1605
b10011100 *
b10011100 ,
1+
#1610
0+
#1615
b10011101 ,
b10011101 *
1+
#1620
0+
#1625
b10011110 *
b10011110 ,
1+
#1630
0+
#1635
b10011111 ,
b10011111 *
1+
#1640
0+
#1645
b10100000 *
b10100000 ,
1+
#1650
0+
#1655
b10100001 ,
b10100001 *
1+
#1660
0+
#1665
b10100010 *
b10100010 ,
1+
#1670
0+
#1675
b10100011 ,
b10100011 *
1+
#1680
0+
#1685
b10100100 *
b10100100 ,
1+
#1690
0+
#1695
b10100101 ,
b10100101 *
1+
#1700
0+
#1705
b10100110 *
b10100110 ,
1+
#1710
0+
#1715
b10100111 ,
b10100111 *
1+
#1720
0+
#1725
b10101000 *
b10101000 ,
1+
#1730
0+
#1735
b10101001 ,
b10101001 *
1+
#1740
0+
#1745
b10101010 *
b10101010 ,
1+
#1750
0+
#1755
b10101011 ,
b10101011 *
1+
#1760
0+
#1765
b10101100 *
b10101100 ,
1+
#1770
0+
#1775
b10101101 ,
b10101101 *
1+
#1780
0+
#1785
b10101110 *
b10101110 ,
1+
#1790
0+
