veri-sim/fetch_2stages/user/run/wave.vcd
$date
	Mon Jan 22 23:11:54 2024
$end
$version
	Icarus Verilog
$end
$timescale
	1s
$end
$scope module testbench $end
$var reg 1 ! clock $end
$var reg 1 " icu_ack $end
$var reg 1 # reset $end
$scope module fetch_2stages $end
$var wire 1 ! clock $end
$var wire 64 $ io_l0_be_br_bus_branch_bus_adr [63:0] $end
$var wire 1 % io_l0_be_br_bus_branch_bus_vld $end
$var wire 64 & io_l0_fe_br_bus_branch_bus_adr [63:0] $end
$var wire 1 ' io_l0_fe_br_bus_branch_bus_vld $end
$var wire 1 " io_l0_fetch_bus_ack $end
$var wire 64 ( io_l0_fetch_bus_adr [63:0] $end
$var wire 64 ) io_l0_fetch_bus_nadr [63:0] $end
$var wire 1 * io_l0_fetch_bus_req $end
$var wire 64 + io_l0_restart_bus_branch_bus_adr [63:0] $end
$var wire 1 , io_l0_restart_bus_branch_bus_vld $end
$var wire 1 - io_l1_bpu_bus_ack $end
$var wire 64 . io_l1_bpu_bus_adr [63:0] $end
$var wire 64 / io_l1_bpu_bus_nadr [63:0] $end
$var wire 1 0 io_l1_bpu_bus_req $end
$var wire 1 1 l0_clock $end
$var wire 64 2 l0_io_be_br_bus_branch_bus_adr [63:0] $end
$var wire 1 3 l0_io_be_br_bus_branch_bus_vld $end
$var wire 1 4 l0_io_deq_ready $end
$var wire 64 5 l0_io_fe_br_bus_branch_bus_adr [63:0] $end
$var wire 1 6 l0_io_fe_br_bus_branch_bus_vld $end
$var wire 1 7 l0_io_fetch_bus_ack $end
$var wire 64 8 l0_io_restart_bus_branch_bus_adr [63:0] $end
$var wire 1 9 l0_io_restart_bus_branch_bus_vld $end
$var wire 1 : l0_reset $end
$var wire 1 ; l1_clock $end
$var wire 1 < l1_io_deq_ready $end
$var wire 64 = l1_io_enq_bits [63:0] $end
$var wire 1 > l1_io_enq_valid $end
$var wire 1 ? l1_reset $end
$var wire 64 @ out_pc [63:0] $end
$var wire 1 A out_ready $end
$var wire 1 B out_valid $end
$var wire 1 # reset $end
$var wire 1 C l1_io_enq_ready $end
$var wire 1 D l1_io_deq_valid $end
$var wire 64 E l1_io_deq_bits [63:0] $end
$var wire 1 F l1_io_bpu_bus_req $end
$var wire 64 G l1_io_bpu_bus_adr [63:0] $end
$var wire 1 H l0_io_fetch_bus_req $end
$var wire 64 I l0_io_fetch_bus_nadr [63:0] $end
$var wire 64 J l0_io_fetch_bus_adr [63:0] $end
$var wire 1 K l0_io_deq_valid $end
$var wire 64 L l0_io_deq_bits [63:0] $end
$scope module l0 $end
$var wire 1 1 clock $end
$var wire 64 M io_be_br_bus_branch_bus_adr [63:0] $end
$var wire 1 3 io_be_br_bus_branch_bus_vld $end
$var wire 64 N io_deq_bits [63:0] $end
$var wire 1 4 io_deq_ready $end
$var wire 1 K io_deq_valid $end
$var wire 64 O io_fe_br_bus_branch_bus_adr [63:0] $end
$var wire 1 6 io_fe_br_bus_branch_bus_vld $end
$var wire 1 7 io_fetch_bus_ack $end
$var wire 64 P io_fetch_bus_adr [63:0] $end
$var wire 1 H io_fetch_bus_req $end
$var wire 64 Q io_restart_bus_branch_bus_adr [63:0] $end
$var wire 1 9 io_restart_bus_branch_bus_vld $end
$var wire 1 : reset $end
$var wire 64 R io_fetch_bus_nadr [63:0] $end
$var wire 64 S _npc_T_4 [63:0] $end
$var wire 64 T _npc_T_3 [63:0] $end
$var wire 64 U _npc_T_2 [63:0] $end
$var wire 64 V _npc_T_1 [63:0] $end
$var reg 64 W pc [63:0] $end
$upscope $end
$scope module l1 $end
$var wire 1 ; clock $end
$var wire 64 X io_bpu_bus_adr [63:0] $end
$var wire 1 F io_bpu_bus_req $end
$var wire 64 Y io_deq_bits [63:0] $end
$var wire 1 Z io_deq_pp_clock $end
$var wire 1 [ io_deq_pp_deq_ready $end
$var wire 64 \ io_deq_pp_enq_bits [63:0] $end
$var wire 1 ] io_deq_pp_enq_valid $end
$var wire 1 ^ io_deq_pp_reset $end
$var wire 1 < io_deq_ready $end
$var wire 1 D io_deq_valid $end
$var wire 64 _ io_enq_bits [63:0] $end
$var wire 1 C io_enq_ready $end
$var wire 1 > io_enq_valid $end
$var wire 1 ? reset $end
$var wire 1 ` io_deq_pp_enq_ready $end
$var wire 1 a io_deq_pp_deq_valid $end
$var wire 64 b io_deq_pp_deq_bits [63:0] $end
$scope module io_deq_pp $end
$var wire 1 c _GEN_0 $end
$var wire 1 Z clock $end
$var wire 64 d deq_bits [63:0] $end
$var wire 1 [ deq_ready $end
$var wire 1 a deq_valid $end
$var wire 64 e enq_bits [63:0] $end
$var wire 1 ` enq_ready $end
$var wire 1 ] enq_valid $end
$var wire 1 f fire $end
$var wire 1 ^ reset $end
$var reg 64 g bits [63:0] $end
$var reg 1 h vld $end
$upscope $end
$upscope $end
$upscope $end
$upscope $end
$enddefinitions $end
#0
$dumpvars
xh
bx g
0f
bx e
bx d
xc
bx b
xa
1`
bx _
1^
0]
bx \
1[
0Z
bx Y
bx X
bx W
bx V
bx U
bx T
bx S
bx R
bz Q
bx P
bz O
bx N
bz M
bx L
0K
bx J
bx I
1H
bx G
xF
bx E
xD
1C
xB
1A
bx @
1?
0>
bx =
1<
0;
1:
09
bz 8
07
06
bz 5
14
03
bz 2
01
x0
b0 /
bx .
1-
0,
bz +
1*
bx )
bx (
0'
bz &
0%
bz $
1#
0"
0!
$end
#10
b10000000000000000000000000000000 )
b10000000000000000000000000000000 I
b10000000000000000000000000000000 R
b10000000000000000000000000000000 S
b10000000000000000000000000000000 T
b10000000000000000000000000000000 U
0c
b10000000000000000000000000010000 V
b10000000000000000000000000000000 \
b10000000000000000000000000000000 e
b10000000000000000000000000000000 =
b10000000000000000000000000000000 _
b10000000000000000000000000000000 L
b10000000000000000000000000000000 N
b10000000000000000000000000000000 (
b10000000000000000000000000000000 J
b10000000000000000000000000000000 P
b10000000000000000000000000000000 W
00
0F
0B
0D
0a
0h
11
1Z
1;
1!
#20
01
0Z
0;
0!
#30
11
1Z
1;
1!
#40
01
0Z
0;
0!
#50
11
1Z
1;
1!
#60
01
0Z
0;
0!
#70
11
1Z
1;
1!
#80
01
0Z
0;
0!
#90
11
1Z
1;
1!
#100
b10000000000000000000000000010000 )
b10000000000000000000000000010000 I
b10000000000000000000000000010000 R
b10000000000000000000000000010000 S
1c
b10000000000000000000000000010000 T
1f
b10000000000000000000000000010000 U
01
0Z
0;
0!
1]
1>
1K
17
1"
#110
b10000000000000000000000000000000 .
b10000000000000000000000000000000 G
b10000000000000000000000000000000 X
b10000000000000000000000000000000 @
b10000000000000000000000000000000 E
b10000000000000000000000000000000 Y
b10000000000000000000000000000000 b
b10000000000000000000000000000000 d
b10000000000000000000000000000000 g
11
1Z
1;
1!
#120
01
0Z
0;
0!
#130
11
1Z
1;
1!
#140
01
0Z
0;
0!
#150
11
1Z
1;
1!
#160
01
0Z
0;
0!
#170
11
1Z
1;
1!
#180
01
0Z
0;
0!
#190
11
1Z
1;
1!
#200
01
0Z
0;
0!
0:
0^
0?
0#
#210
b10000000000000000000000000100000 )
b10000000000000000000000000100000 I
b10000000000000000000000000100000 R
b10000000000000000000000000100000 S
b10000000000000000000000000100000 T
b10000000000000000000000000100000 U
b10000000000000000000000000100000 V
b10000000000000000000000000010000 \
b10000000000000000000000000010000 e
b10000000000000000000000000010000 =
b10000000000000000000000000010000 _
b10000000000000000000000000010000 L
b10000000000000000000000000010000 N
b10000000000000000000000000010000 (
b10000000000000000000000000010000 J
b10000000000000000000000000010000 P
b10000000000000000000000000010000 W
10
1F
1B
1D
1a
1h
11
1Z
1;
1!
#220
01
0Z
0;
0!
#230
b10000000000000000000000000110000 )
b10000000000000000000000000110000 I
b10000000000000000000000000110000 R
b10000000000000000000000000110000 S
b10000000000000000000000000110000 T
b10000000000000000000000000110000 U
b10000000000000000000000000110000 V
b10000000000000000000000000100000 \
b10000000000000000000000000100000 e
b10000000000000000000000000100000 =
b10000000000000000000000000100000 _
b10000000000000000000000000100000 L
b10000000000000000000000000100000 N
b10000000000000000000000000100000 (
b10000000000000000000000000100000 J
b10000000000000000000000000100000 P
b10000000000000000000000000100000 W
b10000000000000000000000000010000 .
b10000000000000000000000000010000 G
b10000000000000000000000000010000 X
b10000000000000000000000000010000 @
b10000000000000000000000000010000 E
b10000000000000000000000000010000 Y
b10000000000000000000000000010000 b
b10000000000000000000000000010000 d
b10000000000000000000000000010000 g
11
1Z
1;
1!
#240
01
0Z
0;
0!
#250
b10000000000000000000000001000000 )
b10000000000000000000000001000000 I
b10000000000000000000000001000000 R
b10000000000000000000000001000000 S
b10000000000000000000000001000000 T
b10000000000000000000000001000000 U
b10000000000000000000000001000000 V
b10000000000000000000000000110000 \
b10000000000000000000000000110000 e
b10000000000000000000000000110000 =
b10000000000000000000000000110000 _
b10000000000000000000000000110000 L
b10000000000000000000000000110000 N
b10000000000000000000000000110000 (
b10000000000000000000000000110000 J
b10000000000000000000000000110000 P
b10000000000000000000000000110000 W
b10000000000000000000000000100000 .
b10000000000000000000000000100000 G
b10000000000000000000000000100000 X
b10000000000000000000000000100000 @
b10000000000000000000000000100000 E
b10000000000000000000000000100000 Y
b10000000000000000000000000100000 b
b10000000000000000000000000100000 d
b10000000000000000000000000100000 g
11
1Z
1;
1!
#260
01
0Z
0;
0!
#270
b10000000000000000000000001010000 )
b10000000000000000000000001010000 I
b10000000000000000000000001010000 R
b10000000000000000000000001010000 S
b10000000000000000000000001010000 T
b10000000000000000000000001010000 U
b10000000000000000000000001010000 V
b10000000000000000000000001000000 \
b10000000000000000000000001000000 e
b10000000000000000000000001000000 =
b10000000000000000000000001000000 _
b10000000000000000000000001000000 L
b10000000000000000000000001000000 N
b10000000000000000000000001000000 (
b10000000000000000000000001000000 J
b10000000000000000000000001000000 P
b10000000000000000000000001000000 W
b10000000000000000000000000110000 .
b10000000000000000000000000110000 G
b10000000000000000000000000110000 X
b10000000000000000000000000110000 @
b10000000000000000000000000110000 E
b10000000000000000000000000110000 Y
b10000000000000000000000000110000 b
b10000000000000000000000000110000 d
b10000000000000000000000000110000 g
11
1Z
1;
1!
#280
01
0Z
0;
0!
#290
b10000000000000000000000001100000 )
b10000000000000000000000001100000 I
b10000000000000000000000001100000 R
b10000000000000000000000001100000 S
b10000000000000000000000001100000 T
b10000000000000000000000001100000 U
b10000000000000000000000001100000 V
b10000000000000000000000001010000 \
b10000000000000000000000001010000 e
b10000000000000000000000001010000 =
b10000000000000000000000001010000 _
b10000000000000000000000001010000 L
b10000000000000000000000001010000 N
b10000000000000000000000001010000 (
b10000000000000000000000001010000 J
b10000000000000000000000001010000 P
b10000000000000000000000001010000 W
b10000000000000000000000001000000 .
b10000000000000000000000001000000 G
b10000000000000000000000001000000 X
b10000000000000000000000001000000 @
b10000000000000000000000001000000 E
b10000000000000000000000001000000 Y
b10000000000000000000000001000000 b
b10000000000000000000000001000000 d
b10000000000000000000000001000000 g
11
1Z
1;
1!
#300
01
0Z
0;
0!
#310
b10000000000000000000000001110000 )
b10000000000000000000000001110000 I
b10000000000000000000000001110000 R
b10000000000000000000000001110000 S
b10000000000000000000000001110000 T
b10000000000000000000000001110000 U
b10000000000000000000000001110000 V
b10000000000000000000000001100000 \
b10000000000000000000000001100000 e
b10000000000000000000000001100000 =
b10000000000000000000000001100000 _
b10000000000000000000000001100000 L
b10000000000000000000000001100000 N
b10000000000000000000000001100000 (
b10000000000000000000000001100000 J
b10000000000000000000000001100000 P
b10000000000000000000000001100000 W
b10000000000000000000000001010000 .
b10000000000000000000000001010000 G
b10000000000000000000000001010000 X
b10000000000000000000000001010000 @
b10000000000000000000000001010000 E
b10000000000000000000000001010000 Y
b10000000000000000000000001010000 b
b10000000000000000000000001010000 d
b10000000000000000000000001010000 g
11
1Z
1;
1!
#320
01
0Z
0;
0!
#330
b10000000000000000000000010000000 )
b10000000000000000000000010000000 I
b10000000000000000000000010000000 R
b10000000000000000000000010000000 S
b10000000000000000000000010000000 T
b10000000000000000000000010000000 U
b10000000000000000000000010000000 V
b10000000000000000000000001110000 \
b10000000000000000000000001110000 e
b10000000000000000000000001110000 =
b10000000000000000000000001110000 _
b10000000000000000000000001110000 L
b10000000000000000000000001110000 N
b10000000000000000000000001110000 (
b10000000000000000000000001110000 J
b10000000000000000000000001110000 P
b10000000000000000000000001110000 W
b10000000000000000000000001100000 .
b10000000000000000000000001100000 G
b10000000000000000000000001100000 X
b10000000000000000000000001100000 @
b10000000000000000000000001100000 E
b10000000000000000000000001100000 Y
b10000000000000000000000001100000 b
b10000000000000000000000001100000 d
b10000000000000000000000001100000 g
11
1Z
1;
1!
#340
01
0Z
0;
0!
#350
b10000000000000000000000010010000 )
b10000000000000000000000010010000 I
b10000000000000000000000010010000 R
b10000000000000000000000010010000 S
b10000000000000000000000010010000 T
b10000000000000000000000010010000 U
b10000000000000000000000010010000 V
b10000000000000000000000010000000 \
b10000000000000000000000010000000 e
b10000000000000000000000010000000 =
b10000000000000000000000010000000 _
b10000000000000000000000010000000 L
b10000000000000000000000010000000 N
b10000000000000000000000010000000 (
b10000000000000000000000010000000 J
b10000000000000000000000010000000 P
b10000000000000000000000010000000 W
b10000000000000000000000001110000 .
b10000000000000000000000001110000 G
b10000000000000000000000001110000 X
b10000000000000000000000001110000 @
b10000000000000000000000001110000 E
b10000000000000000000000001110000 Y
b10000000000000000000000001110000 b
b10000000000000000000000001110000 d
b10000000000000000000000001110000 g
11
1Z
1;
1!
#360
01
0Z
0;
0!
#370
b10000000000000000000000010100000 )
b10000000000000000000000010100000 I
b10000000000000000000000010100000 R
b10000000000000000000000010100000 S
b10000000000000000000000010100000 T
b10000000000000000000000010100000 U
b10000000000000000000000010100000 V
b10000000000000000000000010010000 \
b10000000000000000000000010010000 e
b10000000000000000000000010010000 =
b10000000000000000000000010010000 _
b10000000000000000000000010010000 L
b10000000000000000000000010010000 N
b10000000000000000000000010010000 (
b10000000000000000000000010010000 J
b10000000000000000000000010010000 P
b10000000000000000000000010010000 W
b10000000000000000000000010000000 .
b10000000000000000000000010000000 G
b10000000000000000000000010000000 X
b10000000000000000000000010000000 @
b10000000000000000000000010000000 E
b10000000000000000000000010000000 Y
b10000000000000000000000010000000 b
b10000000000000000000000010000000 d
b10000000000000000000000010000000 g
11
1Z
1;
1!
#380
01
0Z
0;
0!
#390
b10000000000000000000000010110000 )
b10000000000000000000000010110000 I
b10000000000000000000000010110000 R
b10000000000000000000000010110000 S
b10000000000000000000000010110000 T
b10000000000000000000000010110000 U
b10000000000000000000000010110000 V
b10000000000000000000000010100000 \
b10000000000000000000000010100000 e
b10000000000000000000000010100000 =
b10000000000000000000000010100000 _
b10000000000000000000000010100000 L
b10000000000000000000000010100000 N
b10000000000000000000000010100000 (
b10000000000000000000000010100000 J
b10000000000000000000000010100000 P
b10000000000000000000000010100000 W
b10000000000000000000000010010000 .
b10000000000000000000000010010000 G
b10000000000000000000000010010000 X
b10000000000000000000000010010000 @
b10000000000000000000000010010000 E
b10000000000000000000000010010000 Y
b10000000000000000000000010010000 b
b10000000000000000000000010010000 d
b10000000000000000000000010010000 g
11
1Z
1;
1!
#400
01
0Z
0;
0!
#410
b10000000000000000000000011000000 )
b10000000000000000000000011000000 I
b10000000000000000000000011000000 R
b10000000000000000000000011000000 S
b10000000000000000000000011000000 T
b10000000000000000000000011000000 U
b10000000000000000000000011000000 V
b10000000000000000000000010110000 \
b10000000000000000000000010110000 e
b10000000000000000000000010110000 =
b10000000000000000000000010110000 _
b10000000000000000000000010110000 L
b10000000000000000000000010110000 N
b10000000000000000000000010110000 (
b10000000000000000000000010110000 J
b10000000000000000000000010110000 P
b10000000000000000000000010110000 W
b10000000000000000000000010100000 .
b10000000000000000000000010100000 G
b10000000000000000000000010100000 X
b10000000000000000000000010100000 @
b10000000000000000000000010100000 E
b10000000000000000000000010100000 Y
b10000000000000000000000010100000 b
b10000000000000000000000010100000 d
b10000000000000000000000010100000 g
11
1Z
1;
1!
#420
01
0Z
0;
0!
#430
b10000000000000000000000011010000 )
b10000000000000000000000011010000 I
b10000000000000000000000011010000 R
b10000000000000000000000011010000 S
b10000000000000000000000011010000 T
b10000000000000000000000011010000 U
b10000000000000000000000011010000 V
b10000000000000000000000011000000 \
b10000000000000000000000011000000 e
b10000000000000000000000011000000 =
b10000000000000000000000011000000 _
b10000000000000000000000011000000 L
b10000000000000000000000011000000 N
b10000000000000000000000011000000 (
b10000000000000000000000011000000 J
b10000000000000000000000011000000 P
b10000000000000000000000011000000 W
b10000000000000000000000010110000 .
b10000000000000000000000010110000 G
b10000000000000000000000010110000 X
b10000000000000000000000010110000 @
b10000000000000000000000010110000 E
b10000000000000000000000010110000 Y
b10000000000000000000000010110000 b
b10000000000000000000000010110000 d
b10000000000000000000000010110000 g
11
1Z
1;
1!
#440
01
0Z
0;
0!
#450
b10000000000000000000000011100000 )
b10000000000000000000000011100000 I
b10000000000000000000000011100000 R
b10000000000000000000000011100000 S
b10000000000000000000000011100000 T
b10000000000000000000000011100000 U
b10000000000000000000000011100000 V
b10000000000000000000000011010000 \
b10000000000000000000000011010000 e
b10000000000000000000000011010000 =
b10000000000000000000000011010000 _
b10000000000000000000000011010000 L
b10000000000000000000000011010000 N
b10000000000000000000000011010000 (
b10000000000000000000000011010000 J
b10000000000000000000000011010000 P
b10000000000000000000000011010000 W
b10000000000000000000000011000000 .
b10000000000000000000000011000000 G
b10000000000000000000000011000000 X
b10000000000000000000000011000000 @
b10000000000000000000000011000000 E
b10000000000000000000000011000000 Y
b10000000000000000000000011000000 b
b10000000000000000000000011000000 d
b10000000000000000000000011000000 g
11
1Z
1;
1!
#460
01
0Z
0;
0!
#470
b10000000000000000000000011110000 )
b10000000000000000000000011110000 I
b10000000000000000000000011110000 R
b10000000000000000000000011110000 S
b10000000000000000000000011110000 T
b10000000000000000000000011110000 U
b10000000000000000000000011110000 V
b10000000000000000000000011100000 \
b10000000000000000000000011100000 e
b10000000000000000000000011100000 =
b10000000000000000000000011100000 _
b10000000000000000000000011100000 L
b10000000000000000000000011100000 N
b10000000000000000000000011100000 (
b10000000000000000000000011100000 J
b10000000000000000000000011100000 P
b10000000000000000000000011100000 W
b10000000000000000000000011010000 .
b10000000000000000000000011010000 G
b10000000000000000000000011010000 X
b10000000000000000000000011010000 @
b10000000000000000000000011010000 E
b10000000000000000000000011010000 Y
b10000000000000000000000011010000 b
b10000000000000000000000011010000 d
b10000000000000000000000011010000 g
11
1Z
1;
1!
#480
01
0Z
0;
0!
#490
b10000000000000000000000100000000 )
b10000000000000000000000100000000 I
b10000000000000000000000100000000 R
b10000000000000000000000100000000 S
b10000000000000000000000100000000 T
b10000000000000000000000100000000 U
b10000000000000000000000100000000 V
b10000000000000000000000011110000 \
b10000000000000000000000011110000 e
b10000000000000000000000011110000 =
b10000000000000000000000011110000 _
b10000000000000000000000011110000 L
b10000000000000000000000011110000 N
b10000000000000000000000011110000 (
b10000000000000000000000011110000 J
b10000000000000000000000011110000 P
b10000000000000000000000011110000 W
b10000000000000000000000011100000 .
b10000000000000000000000011100000 G
b10000000000000000000000011100000 X
b10000000000000000000000011100000 @
b10000000000000000000000011100000 E
b10000000000000000000000011100000 Y
b10000000000000000000000011100000 b
b10000000000000000000000011100000 d
b10000000000000000000000011100000 g
11
1Z
1;
1!
#500
01
0Z
0;
0!
#510
b10000000000000000000000100010000 )
b10000000000000000000000100010000 I
b10000000000000000000000100010000 R
b10000000000000000000000100010000 S
b10000000000000000000000100010000 T
b10000000000000000000000100010000 U
b10000000000000000000000100010000 V
b10000000000000000000000100000000 \
b10000000000000000000000100000000 e
b10000000000000000000000100000000 =
b10000000000000000000000100000000 _
b10000000000000000000000100000000 L
b10000000000000000000000100000000 N
b10000000000000000000000100000000 (
b10000000000000000000000100000000 J
b10000000000000000000000100000000 P
b10000000000000000000000100000000 W
b10000000000000000000000011110000 .
b10000000000000000000000011110000 G
b10000000000000000000000011110000 X
b10000000000000000000000011110000 @
b10000000000000000000000011110000 E
b10000000000000000000000011110000 Y
b10000000000000000000000011110000 b
b10000000000000000000000011110000 d
b10000000000000000000000011110000 g
11
1Z
1;
1!
#520
01
0Z
0;
0!
#530
b10000000000000000000000100100000 )
b10000000000000000000000100100000 I
b10000000000000000000000100100000 R
b10000000000000000000000100100000 S
b10000000000000000000000100100000 T
b10000000000000000000000100100000 U
b10000000000000000000000100100000 V
b10000000000000000000000100010000 \
b10000000000000000000000100010000 e
b10000000000000000000000100010000 =
b10000000000000000000000100010000 _
b10000000000000000000000100010000 L
b10000000000000000000000100010000 N
b10000000000000000000000100010000 (
b10000000000000000000000100010000 J
b10000000000000000000000100010000 P
b10000000000000000000000100010000 W
b10000000000000000000000100000000 .
b10000000000000000000000100000000 G
b10000000000000000000000100000000 X
b10000000000000000000000100000000 @
b10000000000000000000000100000000 E
b10000000000000000000000100000000 Y
b10000000000000000000000100000000 b
b10000000000000000000000100000000 d
b10000000000000000000000100000000 g
11
1Z
1;
1!
#540
01
0Z
0;
0!
#550
b10000000000000000000000100110000 )
b10000000000000000000000100110000 I
b10000000000000000000000100110000 R
b10000000000000000000000100110000 S
b10000000000000000000000100110000 T
b10000000000000000000000100110000 U
b10000000000000000000000100110000 V
b10000000000000000000000100100000 \
b10000000000000000000000100100000 e
b10000000000000000000000100100000 =
b10000000000000000000000100100000 _
b10000000000000000000000100100000 L
b10000000000000000000000100100000 N
b10000000000000000000000100100000 (
b10000000000000000000000100100000 J
b10000000000000000000000100100000 P
b10000000000000000000000100100000 W
b10000000000000000000000100010000 .
b10000000000000000000000100010000 G
b10000000000000000000000100010000 X
b10000000000000000000000100010000 @
b10000000000000000000000100010000 E
b10000000000000000000000100010000 Y
b10000000000000000000000100010000 b
b10000000000000000000000100010000 d
b10000000000000000000000100010000 g
11
1Z
1;
1!
#560
01
0Z
0;
0!
#570
b10000000000000000000000101000000 )
b10000000000000000000000101000000 I
b10000000000000000000000101000000 R
b10000000000000000000000101000000 S
b10000000000000000000000101000000 T
b10000000000000000000000101000000 U
b10000000000000000000000101000000 V
b10000000000000000000000100110000 \
b10000000000000000000000100110000 e
b10000000000000000000000100110000 =
b10000000000000000000000100110000 _
b10000000000000000000000100110000 L
b10000000000000000000000100110000 N
b10000000000000000000000100110000 (
b10000000000000000000000100110000 J
b10000000000000000000000100110000 P
b10000000000000000000000100110000 W
b10000000000000000000000100100000 .
b10000000000000000000000100100000 G
b10000000000000000000000100100000 X
b10000000000000000000000100100000 @
b10000000000000000000000100100000 E
b10000000000000000000000100100000 Y
b10000000000000000000000100100000 b
b10000000000000000000000100100000 d
b10000000000000000000000100100000 g
11
1Z
1;
1!
#580
01
0Z
0;
0!
#590
b10000000000000000000000101010000 )
b10000000000000000000000101010000 I
b10000000000000000000000101010000 R
b10000000000000000000000101010000 S
b10000000000000000000000101010000 T
b10000000000000000000000101010000 U
b10000000000000000000000101010000 V
b10000000000000000000000101000000 \
b10000000000000000000000101000000 e
b10000000000000000000000101000000 =
b10000000000000000000000101000000 _
b10000000000000000000000101000000 L
b10000000000000000000000101000000 N
b10000000000000000000000101000000 (
b10000000000000000000000101000000 J
b10000000000000000000000101000000 P
b10000000000000000000000101000000 W
b10000000000000000000000100110000 .
b10000000000000000000000100110000 G
b10000000000000000000000100110000 X
b10000000000000000000000100110000 @
b10000000000000000000000100110000 E
b10000000000000000000000100110000 Y
b10000000000000000000000100110000 b
b10000000000000000000000100110000 d
b10000000000000000000000100110000 g
11
1Z
1;
1!
#600
01
0Z
0;
0!
#610
b10000000000000000000000101100000 )
b10000000000000000000000101100000 I
b10000000000000000000000101100000 R
b10000000000000000000000101100000 S
b10000000000000000000000101100000 T
b10000000000000000000000101100000 U
b10000000000000000000000101100000 V
b10000000000000000000000101010000 \
b10000000000000000000000101010000 e
b10000000000000000000000101010000 =
b10000000000000000000000101010000 _
b10000000000000000000000101010000 L
b10000000000000000000000101010000 N
b10000000000000000000000101010000 (
b10000000000000000000000101010000 J
b10000000000000000000000101010000 P
b10000000000000000000000101010000 W
b10000000000000000000000101000000 .
b10000000000000000000000101000000 G
b10000000000000000000000101000000 X
b10000000000000000000000101000000 @
b10000000000000000000000101000000 E
b10000000000000000000000101000000 Y
b10000000000000000000000101000000 b
b10000000000000000000000101000000 d
b10000000000000000000000101000000 g
11
1Z
1;
1!
#620
01
0Z
0;
0!
#630
b10000000000000000000000101110000 )
b10000000000000000000000101110000 I
b10000000000000000000000101110000 R
b10000000000000000000000101110000 S
b10000000000000000000000101110000 T
b10000000000000000000000101110000 U
b10000000000000000000000101110000 V
b10000000000000000000000101100000 \
b10000000000000000000000101100000 e
b10000000000000000000000101100000 =
b10000000000000000000000101100000 _
b10000000000000000000000101100000 L
b10000000000000000000000101100000 N
b10000000000000000000000101100000 (
b10000000000000000000000101100000 J
b10000000000000000000000101100000 P
b10000000000000000000000101100000 W
b10000000000000000000000101010000 .
b10000000000000000000000101010000 G
b10000000000000000000000101010000 X
b10000000000000000000000101010000 @
b10000000000000000000000101010000 E
b10000000000000000000000101010000 Y
b10000000000000000000000101010000 b
b10000000000000000000000101010000 d
b10000000000000000000000101010000 g
11
1Z
1;
1!
#640
01
0Z
0;
0!
#650
b10000000000000000000000110000000 )
b10000000000000000000000110000000 I
b10000000000000000000000110000000 R
b10000000000000000000000110000000 S
b10000000000000000000000110000000 T
b10000000000000000000000110000000 U
b10000000000000000000000110000000 V
b10000000000000000000000101110000 \
b10000000000000000000000101110000 e
b10000000000000000000000101110000 =
b10000000000000000000000101110000 _
b10000000000000000000000101110000 L
b10000000000000000000000101110000 N
b10000000000000000000000101110000 (
b10000000000000000000000101110000 J
b10000000000000000000000101110000 P
b10000000000000000000000101110000 W
b10000000000000000000000101100000 .
b10000000000000000000000101100000 G
b10000000000000000000000101100000 X
b10000000000000000000000101100000 @
b10000000000000000000000101100000 E
b10000000000000000000000101100000 Y
b10000000000000000000000101100000 b
b10000000000000000000000101100000 d
b10000000000000000000000101100000 g
11
1Z
1;
1!
#660
01
0Z
0;
0!
#670
b10000000000000000000000110010000 )
b10000000000000000000000110010000 I
b10000000000000000000000110010000 R
b10000000000000000000000110010000 S
b10000000000000000000000110010000 T
b10000000000000000000000110010000 U
b10000000000000000000000110010000 V
b10000000000000000000000110000000 \
b10000000000000000000000110000000 e
b10000000000000000000000110000000 =
b10000000000000000000000110000000 _
b10000000000000000000000110000000 L
b10000000000000000000000110000000 N
b10000000000000000000000110000000 (
b10000000000000000000000110000000 J
b10000000000000000000000110000000 P
b10000000000000000000000110000000 W
b10000000000000000000000101110000 .
b10000000000000000000000101110000 G
b10000000000000000000000101110000 X
b10000000000000000000000101110000 @
b10000000000000000000000101110000 E
b10000000000000000000000101110000 Y
b10000000000000000000000101110000 b
b10000000000000000000000101110000 d
b10000000000000000000000101110000 g
11
1Z
1;
1!
#680
01
0Z
0;
0!
#690
b10000000000000000000000110100000 )
b10000000000000000000000110100000 I
b10000000000000000000000110100000 R
b10000000000000000000000110100000 S
b10000000000000000000000110100000 T
b10000000000000000000000110100000 U
b10000000000000000000000110100000 V
b10000000000000000000000110010000 \
b10000000000000000000000110010000 e
b10000000000000000000000110010000 =
b10000000000000000000000110010000 _
b10000000000000000000000110010000 L
b10000000000000000000000110010000 N
b10000000000000000000000110010000 (
b10000000000000000000000110010000 J
b10000000000000000000000110010000 P
b10000000000000000000000110010000 W
b10000000000000000000000110000000 .
b10000000000000000000000110000000 G
b10000000000000000000000110000000 X
b10000000000000000000000110000000 @
b10000000000000000000000110000000 E
b10000000000000000000000110000000 Y
b10000000000000000000000110000000 b
b10000000000000000000000110000000 d
b10000000000000000000000110000000 g
11
1Z
1;
1!
#700
01
0Z
0;
0!
#710
b10000000000000000000000110110000 )
b10000000000000000000000110110000 I
b10000000000000000000000110110000 R
b10000000000000000000000110110000 S
b10000000000000000000000110110000 T
b10000000000000000000000110110000 U
b10000000000000000000000110110000 V
b10000000000000000000000110100000 \
b10000000000000000000000110100000 e
b10000000000000000000000110100000 =
b10000000000000000000000110100000 _
b10000000000000000000000110100000 L
b10000000000000000000000110100000 N
b10000000000000000000000110100000 (
b10000000000000000000000110100000 J
b10000000000000000000000110100000 P
b10000000000000000000000110100000 W
b10000000000000000000000110010000 .
b10000000000000000000000110010000 G
b10000000000000000000000110010000 X
b10000000000000000000000110010000 @
b10000000000000000000000110010000 E
b10000000000000000000000110010000 Y
b10000000000000000000000110010000 b
b10000000000000000000000110010000 d
b10000000000000000000000110010000 g
11
1Z
1;
1!
#720
01
0Z
0;
0!
#730
b10000000000000000000000111000000 )
b10000000000000000000000111000000 I
b10000000000000000000000111000000 R
b10000000000000000000000111000000 S
b10000000000000000000000111000000 T
b10000000000000000000000111000000 U
b10000000000000000000000111000000 V
b10000000000000000000000110110000 \
b10000000000000000000000110110000 e
b10000000000000000000000110110000 =
b10000000000000000000000110110000 _
b10000000000000000000000110110000 L
b10000000000000000000000110110000 N
b10000000000000000000000110110000 (
b10000000000000000000000110110000 J
b10000000000000000000000110110000 P
b10000000000000000000000110110000 W
b10000000000000000000000110100000 .
b10000000000000000000000110100000 G
b10000000000000000000000110100000 X
b10000000000000000000000110100000 @
b10000000000000000000000110100000 E
b10000000000000000000000110100000 Y
b10000000000000000000000110100000 b
b10000000000000000000000110100000 d
b10000000000000000000000110100000 g
11
1Z
1;
1!
#740
01
0Z
0;
0!
