veri-sim/clkSwitch2to1/user/sim/clkSwitch2to1_tb.vcd
$date
	Fri Sep 15 00:19:57 2023
$end
$version
	Icarus Verilog
$end
$timescale
	1ps
$end
$scope module clkSwitch2to1_tb $end
$var wire 1 ! simend $end
$var wire 1 " clko $end
$var reg 1 # clk0 $end
$var reg 1 $ clk1 $end
$var reg 1 % clk_sel $end
$var reg 32 & cnt [31:0] $end
$var reg 1 ' rst $end
$scope module dut $end
$var wire 1 ( _T $end
$var wire 1 ) _T_1 $end
$var wire 1 * _sel_clk0_r_T_4 $end
$var wire 1 + _sel_clk1_r_T_4 $end
$var wire 1 , clk_gate_0 $end
$var wire 1 - clk_gate_1 $end
$var wire 1 . clock $end
$var wire 1 # io_clkin_0 $end
$var wire 1 $ io_clkin_1 $end
$var wire 1 % io_clksel $end
$var wire 1 ' reset $end
$var wire 1 / sel_clk1 $end
$var wire 1 " io_clko $end
$var wire 2 0 _sel_clk1_r_T_5 [1:0] $end
$var wire 2 1 _sel_clk1_neg_r_T_2 [1:0] $end
$var wire 2 2 _sel_clk0_r_T_5 [1:0] $end
$var wire 2 3 _sel_clk0_neg_r_T_2 [1:0] $end
$var wire 2 4 _io_clko_T [1:0] $end
$var reg 2 5 sel_clk0_neg_r [1:0] $end
$var reg 2 6 sel_clk0_r [1:0] $end
$var reg 2 7 sel_clk1_neg_r [1:0] $end
$var reg 2 8 sel_clk1_r [1:0] $end
$upscope $end
$scope begin x_z_chk $end
$upscope $end
$upscope $end
$enddefinitions $end
#0
$dumpvars
bx 8
b0 7
bx 6
b0 5
b0 4
b0x 3
bx 2
b0x 1
bx 0
x/
z.
0-
0,
x+
x*
1)
1(
1'
bx &
x%
0$
0#
0"
x!
$end
#2300
b0x 0
b0 1
b0 8
0)
1$
#4600
1)
0$
#6900
0)
1$
#7000
b1x 2
b1 3
0!
b11 6
b0 &
x%
0(
1#
#9200
1)
0$
#11500
0)
1$
#13800
1)
0$
#14000
1(
0#
#16100
0)
1$
#18400
1)
0$
#20700
0)
1$
#21000
b1 0
1+
1/
b10 2
0*
0%
0(
1#
#23000
1)
0$
#25300
0)
1$
#27600
1)
0$
#28000
1(
0#
#29900
0)
1$
#32200
1)
0$
#34500
0)
1$
#35000
0(
1#
#36800
1)
0$
#39100
0)
1$
#41400
1)
0$
#42000
1(
0#
#43700
0)
1$
#46000
1)
0$
#48300
0)
1$
#49000
0(
1#
#50600
1)
0$
#52900
0)
1$
#55200
1)
0$
#56000
1(
0#
#57500
0)
1$
#59800
1)
0$
#62100
0)
1$
#63000
0(
1#
#64400
1)
0$
#66700
0)
1$
#69000
1)
0$
#70000
1(
0#
#71300
0)
1$
#73600
1)
0$
#75900
0)
1$
#77000
0(
1#
#78200
1)
0$
#80500
0)
1$
#82800
1)
0$
#84000
1(
0#
#85100
0)
1$
#87400
1)
0$
#89700
0)
1$
#91000
0(
1#
#92000
1)
0$
#94300
0)
1$
#96600
1)
0$
#98000
1(
0#
#98900
0)
1$
#101200
1)
0$
#103500
0)
1$
#105000
0(
1#
#105800
1)
0$
#108100
0)
1$
#110400
1)
0$
#112000
1(
0#
#112700
0)
1$
#115000
1)
0$
#117300
0)
1$
#119000
0(
1#
#119600
1)
0$
#121900
0)
1$
#124200
1)
0$
#126000
1(
0#
#126500
0)
1$
#128800
1)
0$
#131100
0)
1$
#133000
0(
1#
#133400
1)
0$
#135700
0)
1$
#138000
1)
0$
#140000
1(
0#
#140300
0)
1$
#142600
1)
0$
#144900
0)
1$
#147000
0(
1#
#147200
1)
0$
#149500
0)
1$
#151800
1)
0$
#154000
1(
0#
#154100
0)
1$
#156400
1)
0$
#158700
0)
1$
#161000
1)
0(
0$
1#
#163300
0)
1$
#165600
1)
0$
#167900
0)
1$
#168000
1(
0#
#170200
1)
0$
#172500
0)
1$
#174800
1)
0$
#175000
0(
1#
#177100
0)
1$
#179400
1)
0$
#181700
0)
1$
#182000
1(
0#
#184000
1)
0$
#186300
0)
1$
#188600
1)
0$
#189000
0(
1#
#190900
0)
1$
#193200
1)
0$
#195500
0)
1$
#196000
1(
0#
#197800
1)
0$
#200100
0)
1$
#202400
1)
0$
#203000
0(
1#
#204700
0)
1$
#207000
1)
0$
#209300
0)
1$
#210000
1(
0#
#211600
1)
0$
#213900
0)
1$
#216200
1)
0$
#217000
0(
1#
#218500
0)
1$
#220800
1)
0$
#223100
0)
1$
#224000
1(
0#
#225400
1)
0$
#227700
0)
1$
#230000
1)
0$
#231000
0(
1#
#232300
0)
1$
#234600
1)
0$
#236900
0)
1$
#238000
1(
0#
#239200
1)
0$
#241500
0)
1$
#243800
1)
0$
#245000
0(
1#
#246100
0)
1$
#248400
1)
0$
#250700
0)
1$
#252000
1(
0#
#253000
1)
0$
#255300
0)
1$
#257600
1)
0$
#259000
0(
1#
#259900
0)
1$
#262200
1)
0$
#264500
0)
1$
#266000
1(
0#
#266800
1)
0$
#269100
0)
1$
#271400
1)
0$
#273000
0(
1#
#273700
0)
1$
#276000
1)
0$
#278300
0)
1$
#280000
1(
0#
#280600
1)
0$
#282900
0)
1$
#285200
1)
0$
#287000
0(
1#
#287500
0)
1$
#289800
1)
0$
#292100
0)
1$
#294000
1(
0#
#294400
1)
0$
#296700
0)
1$
#299000
1)
0$
#301000
0(
1#
#301300
0)
1$
#303600
1)
0$
#305900
0)
1$
#308000
1(
0#
#308200
1)
0$
#310500
0)
1$
#312800
1)
0$
#315000
0(
1#
#315100
0)
1$
#317400
1)
0$
#319700
0)
1$
#322000
1)
1(
0$
0#
#324300
0)
1$
#326600
1)
0$
#328900
0)
1$
#329000
0(
1#
#331200
1)
0$
#333500
0)
1$
#335800
1)
0$
#336000
1(
0#
#338100
0)
1$
#340400
1)
0$
#342700
0)
1$
#343000
0(
1#
#345000
1)
0$
#347300
0)
1$
#349600
1)
0$
#350000
1(
0#
#351900
0)
1$
#354200
1)
0$
#356500
0)
1$
#357000
0(
1#
#358800
1)
0$
#361100
0)
1$
#363400
1)
0$
#364000
1(
0#
#365700
0)
1$
#368000
1)
0$
#370300
0)
1$
#371000
0(
1#
#372600
1)
0$
#374900
0)
1$
#377200
1)
0$
#378000
1(
0#
#379500
0)
1$
#381800
1)
0$
#384100
0)
1$
#385000
0(
1#
#386400
1)
0$
#388700
0)
1$
#391000
1)
0$
#392000
1(
0#
#393300
0)
1$
#395600
1)
0$
#397900
0)
1$
#399000
0(
1#
#400200
1)
0$
#402500
0)
1$
#404800
1)
0$
#406000
1(
0#
#407100
0)
1$
#409400
1)
0$
#411700
0)
1$
#413000
0(
1#
#414000
1)
0$
#416300
0)
1$
#418600
1)
0$
#420000
1(
0#
#420900
0)
1$
#423200
1)
0$
#425500
0)
1$
#427000
0(
1#
#427800
1)
0$
#430100
0)
1$
#432400
1)
0$
#434000
1(
0#
#434700
0)
1$
#437000
1)
0$
#439300
0)
1$
#441000
0(
1#
#441600
1)
0$
#443900
0)
1$
#446200
1)
0$
#448000
1(
0#
#448500
0)
1$
#450800
1)
0$
#453100
0)
1$
#455000
0(
1#
#455400
1)
0$
#457700
0)
1$
#460000
1)
0$
#462000
1(
0#
#462300
0)
1$
#464600
1)
0$
#466900
0)
1$
#469000
0(
1#
#469200
1)
0$
#471500
0)
1$
#473800
1)
0$
#476000
1(
0#
#476100
0)
1$
#478400
1)
0$
#480700
0)
1$
#483000
1)
0(
0$
1#
#485300
0)
1$
#487600
1)
0$
#489900
0)
1$
#490000
1(
0#
#492200
1)
0$
#494500
0)
1$
#496800
1)
0$
#497000
0(
1#
#499100
0)
1$
#501400
1)
0$
#503700
0)
1$
#504000
1(
0#
#506000
1)
0$
#508300
0)
1$
#510600
1)
0$
#511000
0(
1#
#512900
0)
1$
#515200
1)
0$
#517500
0)
1$
#518000
1(
0#
#519800
1)
0$
#522100
0)
1$
#524400
1)
0$
#525000
0(
1#
#526700
0)
1$
#529000
1)
0$
#531300
0)
1$
#532000
1(
0#
#533600
1)
0$
#535900
0)
1$
#538200
1)
0$
#539000
0(
1#
#540500
0)
1$
#542800
1)
0$
#545100
0)
1$
#546000
1(
0#
#547400
1)
0$
#549700
0)
1$
#552000
1)
0$
#553000
0(
1#
#554300
0)
1$
#556600
1)
0$
#558900
0)
1$
#560000
1(
0#
#561200
1)
0$
#563500
0)
1$
#565800
1)
0$
#567000
0(
1#
#568100
0)
1$
#570400
1)
0$
#572700
0)
1$
#574000
1(
0#
#575000
1)
0$
#577300
0)
1$
#579600
1)
0$
#581000
0(
1#
#581900
0)
1$
#584200
1)
0$
#586500
0)
1$
#588000
1(
0#
#588800
1)
0$
#591100
0)
1$
#593400
1)
0$
#595000
0(
1#
#595700
0)
1$
#598000
1)
0$
#600300
0)
1$
#602000
1(
0#
#602600
1)
0$
#604900
0)
1$
#607200
1)
0$
#609000
0(
1#
#609500
0)
1$
#611800
1)
0$
#614100
0)
1$
#616000
1(
0#
#616400
1)
0$
#618700
0)
1$
#621000
1)
0$
#623000
0(
1#
#623300
0)
1$
#625600
1)
0$
#627900
0)
1$
#630000
1(
0#
#630200
1)
0$
#632500
0)
1$
#634800
1)
0$
#637000
0(
1#
#637100
0)
1$
#639400
1)
0$
#641700
0)
1$
#644000
1)
1(
0$
0#
#646300
0)
1$
#648600
1)
0$
#650900
0)
1$
#651000
0(
1#
#653200
1)
0$
#655500
0)
1$
#657800
1)
0$
#658000
1(
0#
#660100
0)
1$
#662400
1)
0$
#664700
0)
1$
#665000
0(
1#
#667000
1)
0$
#669300
0)
1$
#671600
1)
0$
#672000
1(
0#
#673900
0)
1$
#676200
1)
0$
#678500
0)
1$
#679000
0(
1#
#680800
1)
0$
#683100
0)
1$
#685400
1)
0$
#686000
1(
0#
#687700
0)
1$
#690000
1)
0$
#692300
0)
1$
#693000
0(
1#
#694600
1)
0$
#696900
0)
1$
#699200
1)
0$
#700000
1(
0#
#701500
0)
1$
#703800
1)
0$
#706100
0)
1$
#707000
0(
1#
#708400
1)
0$
#710700
0)
1$
#713000
1)
0$
#714000
1(
0#
#715300
0)
1$
#717600
1)
0$
#719900
0)
1$
#721000
0(
1#
#722200
1)
0$
#724500
0)
1$
#726800
1)
0$
#728000
1(
0#
#729100
0)
1$
#731400
1)
0$
#733700
0)
1$
#735000
0(
1#
#736000
1)
0$
#738300
0)
1$
#740600
1)
0$
#742000
1(
0#
#742900
0)
1$
#745200
1)
0$
#747500
0)
1$
#749000
0(
1#
#749800
1)
0$
#752100
0)
1$
#754400
1)
0$
#756000
1(
0#
#756700
0)
1$
#759000
1)
0$
#761300
0)
1$
#763000
0(
1#
#763600
1)
0$
#765900
0)
1$
#768200
1)
0$
#770000
1(
0#
#770500
0)
1$
#772800
1)
0$
#775100
0)
1$
#777000
0(
1#
#777400
1)
0$
#779700
0)
1$
#782000
1)
0$
#784000
1(
0#
#784300
0)
1$
#786600
1)
0$
#788900
0)
1$
#791000
0(
1#
#791200
1)
0$
#793500
0)
1$
#795800
1)
0$
#798000
1(
0#
#798100
0)
1$
#800400
1)
0$
#802700
0)
1$
#805000
1)
0(
0$
1#
#807300
0)
1$
#809600
1)
0$
#811900
0)
1$
#812000
1(
0#
#814200
1)
0$
#816500
0)
1$
#818800
1)
0$
#819000
0(
1#
#821100
0)
1$
#823400
1)
0$
#825700
0)
1$
#826000
1(
0#
#828000
1)
0$
#830300
0)
1$
#832600
1)
0$
#833000
0(
1#
#834900
0)
1$
#837200
1)
0$
#839500
0)
1$
#840000
1(
0#
#841800
1)
0$
#844100
0)
1$
#846400
1)
0$
#847000
0(
1#
#848700
0)
1$
#851000
1)
0$
#853300
0)
1$
#854000
1(
0#
#855600
1)
0$
#857900
0)
1$
#860200
1)
0$
#861000
0(
1#
#862500
0)
1$
#864800
1)
0$
#867100
0)
1$
#868000
1(
0#
#869400
1)
0$
#871700
0)
1$
#874000
1)
0$
#875000
0(
1#
#876300
0)
1$
#878600
1)
0$
#880900
0)
1$
#882000
1(
0#
#883200
1)
0$
#885500
0)
1$
#887800
1)
0$
#889000
0(
1#
#890100
0)
1$
#892400
1)
0$
#894700
0)
1$
#896000
1(
0#
#897000
1)
0$
#899300
0)
1$
#901600
1)
0$
#903000
0(
1#
#903900
0)
1$
#906200
1)
0$
#908500
0)
1$
#910000
1(
0#
#910800
1)
0$
#913100
0)
1$
#915400
1)
0$
#917000
0(
1#
#917700
0)
1$
#920000
1)
0$
#922300
0)
1$
#924000
1(
0#
#924600
1)
0$
#926900
0)
1$
#929200
1)
0$
#931000
0(
1#
#931500
0)
1$
#933800
1)
0$
#936100
0)
1$
#938000
1(
0#
#938400
1)
0$
#940700
0)
1$
#943000
1)
0$
#945000
0(
1#
#945300
0)
1$
#947600
1)
0$
#949900
0)
1$
#952000
1(
0#
#952200
1)
0$
#954500
0)
1$
#956800
1)
0$
#959000
0(
1#
#959100
0)
1$
#961400
1)
0$
#963700
0)
1$
#966000
1)
1(
0$
0#
#968300
0)
1$
#970600
1)
0$
#972900
0)
1$
#973000
0(
1#
#975200
1)
0$
#977500
0)
1$
#979800
1)
0$
#980000
1(
0#
#982100
0)
1$
#984400
1)
0$
#986700
0)
1$
#987000
0(
1#
#989000
1)
0$
#991300
0)
1$
#993600
1)
0$
#994000
1(
0#
#995900
0)
1$
#998200
1)
0$
#1000000
0'
#1000500
b11 0
b1 8
0)
1$
#1001000
b0 2
b1 &
b10 6
0(
1#
#1002800
1)
0$
#1005100
b1 1
b11 8
0)
1$
#1007400
b11 1
b1 7
1)
0$
#1008000
b11 3
b1 5
1(
0#
#1009700
0)
1$
#1012000
b11 7
1)
0$
#1014300
0)
1"
b10 4
1-
1$
#1015000
b10 3
b0 6
b10 &
0(
1#
#1016600
1)
0"
b0 4
0-
0$
#1018900
0)
1"
b10 4
1-
1$
#1021200
1)
0"
b0 4
0-
0$
#1022000
b10 0
0+
b0 3
b10 5
1(
0#
#1023500
b0 0
b10 8
0)
1"
b10 4
1-
1$
#1025800
1)
0"
b0 4
0-
0$
#1028100
b10 1
b0 8
0)
1"
b10 4
1-
1$
#1029000
b11 &
0(
b11 4
1,
1#
#1030400
b0 1
b10 7
1)
b1 4
0-
0$
#1032700
0)
b11 4
1-
1$
#1035000
b0 7
1)
b1 4
0-
0$
#1036000
b1 0
1+
b0 5
1(
0"
b0 4
0,
0#
#1037300
b11 0
b1 8
0)
1$
#1039600
1)
0$
#1041900
b1 1
b11 8
0)
1$
#1043000
b100 &
0(
1#
#1044200
b11 1
b1 7
1)
0$
#1046500
0)
1$
#1048800
b11 7
1)
0$
#1050000
1(
0#
#1051100
0)
1"
b10 4
1-
1$
#1053400
1)
0"
b0 4
0-
0$
#1055700
0)
1"
b10 4
1-
1$
#1057000
b101 &
0(
1#
#1058000
1)
0"
b0 4
0-
0$
#1060300
0)
1"
b10 4
1-
1$
#1062600
1)
0"
b0 4
0-
0$
#1064000
1(
0#
#1064900
0)
1"
b10 4
1-
1$
#1067200
1)
0"
b0 4
0-
0$
#1069500
0)
1"
b10 4
1-
1$
#1071000
b110 &
0(
1#
#1071800
1)
0"
b0 4
0-
0$
#1074100
0)
1"
b10 4
1-
1$
#1076400
1)
0"
b0 4
0-
0$
#1078000
1(
0#
#1078700
0)
1"
b10 4
1-
1$
#1081000
1)
0"
b0 4
0-
0$
#1083300
0)
1"
b10 4
1-
1$
#1085000
b111 &
0(
1#
#1085600
1)
0"
b0 4
0-
0$
#1087900
0)
1"
b10 4
1-
1$
#1090200
1)
0"
b0 4
0-
0$
#1092000
1(
0#
#1092500
0)
1"
b10 4
1-
1$
#1094800
1)
0"
b0 4
0-
0$
#1097100
0)
1"
b10 4
1-
1$
#1099000
b1000 &
0(
1#
#1099400
1)
0"
b0 4
0-
0$
#1101700
0)
1"
b10 4
1-
1$
#1104000
1)
0"
b0 4
0-
0$
#1106000
1(
0#
#1106300
0)
1"
b10 4
1-
1$
#1108600
1)
0"
b0 4
0-
0$
#1110900
0)
1"
b10 4
1-
1$
#1113000
b1001 &
0(
1#
#1113200
1)
0"
b0 4
0-
0$
#1115500
0)
1"
b10 4
1-
1$
#1117800
1)
0"
b0 4
0-
0$
#1120000
1(
0#
#1120100
0)
1"
b10 4
1-
1$
#1122400
1)
0"
b0 4
0-
0$
#1124700
0)
1"
b10 4
1-
1$
#1127000
b1010 &
1)
0"
b0 4
0-
0(
0$
1#
#1129300
0)
1"
b10 4
1-
1$
#1131600
1)
0"
b0 4
0-
0$
#1133900
0)
1"
b10 4
1-
1$
#1134000
1(
0#
#1136200
1)
0"
b0 4
0-
0$
#1138500
0)
1"
b10 4
1-
1$
#1140800
1)
0"
b0 4
0-
0$
#1141000
b1011 &
0(
1#
#1143100
0)
1"
b10 4
1-
1$
#1145400
1)
0"
b0 4
0-
0$
#1147700
0)
1"
b10 4
1-
1$
#1148000
1(
0#
#1150000
1)
0"
b0 4
0-
0$
#1152300
0)
1"
b10 4
1-
1$
#1154600
1)
0"
b0 4
0-
0$
#1155000
b1100 &
0(
1#
#1156900
0)
1"
b10 4
1-
1$
#1159200
1)
0"
b0 4
0-
0$
#1161500
0)
1"
b10 4
1-
1$
#1162000
1(
0#
#1163800
1)
0"
b0 4
0-
0$
#1166100
0)
1"
b10 4
1-
1$
#1168400
1)
0"
b0 4
0-
0$
#1169000
b1101 &
0(
1#
#1170700
0)
1"
b10 4
1-
1$
#1173000
1)
0"
b0 4
0-
0$
#1175300
0)
1"
b10 4
1-
1$
#1176000
1(
0#
#1177600
1)
0"
b0 4
0-
0$
#1179900
0)
1"
b10 4
1-
1$
#1182200
1)
0"
b0 4
0-
0$
#1183000
b1110 &
0(
1#
#1184500
0)
1"
b10 4
1-
1$
#1186800
1)
0"
b0 4
0-
0$
#1189100
0)
1"
b10 4
1-
1$
#1190000
1(
0#
#1191400
1)
0"
b0 4
0-
0$
#1193700
0)
1"
b10 4
1-
1$
#1196000
1)
0"
b0 4
0-
0$
#1197000
b1111 &
0(
1#
#1198300
0)
1"
b10 4
1-
1$
#1200600
1)
0"
b0 4
0-
0$
#1202900
0)
1"
b10 4
1-
1$
#1204000
1(
0#
#1205200
1)
0"
b0 4
0-
0$
#1207500
0)
1"
b10 4
1-
1$
#1209800
1)
0"
b0 4
0-
0$
#1211000
b10000 &
0(
1#
#1212100
0)
1"
b10 4
1-
1$
#1214400
1)
0"
b0 4
0-
0$
#1216700
0)
1"
b10 4
1-
1$
#1218000
1(
0#
#1219000
1)
0"
b0 4
0-
0$
#1221300
0)
1"
b10 4
1-
1$
#1223600
1)
0"
b0 4
0-
0$
#1225000
b10001 &
0(
1#
#1225900
0)
1"
b10 4
1-
1$
#1228200
1)
0"
b0 4
0-
0$
#1230500
0)
1"
b10 4
1-
1$
#1232000
1(
0#
#1232800
1)
0"
b0 4
0-
0$
#1235100
0)
1"
b10 4
1-
1$
#1237400
1)
0"
b0 4
0-
0$
#1239000
b10010 &
0(
1#
#1239700
0)
1"
b10 4
1-
1$
#1242000
1)
0"
b0 4
0-
0$
#1244300
0)
1"
b10 4
1-
1$
#1246000
1(
0#
#1246600
1)
0"
b0 4
0-
0$
#1248900
0)
1"
b10 4
1-
1$
#1251200
1)
0"
b0 4
0-
0$
#1253000
b10011 &
0(
1#
#1253500
0)
1"
b10 4
1-
1$
#1255800
1)
0"
b0 4
0-
0$
#1258100
0)
1"
b10 4
1-
1$
#1260000
1(
0#
#1260400
1)
0"
b0 4
0-
0$
#1262700
0)
1"
b10 4
1-
1$
#1265000
1)
0"
b0 4
0-
0$
#1267000
b10100 &
0(
1#
#1267300
0)
1"
b10 4
1-
1$
#1269600
1)
0"
b0 4
0-
0$
#1271900
0)
1"
b10 4
1-
1$
#1274000
1(
0#
#1274200
1)
0"
b0 4
0-
0$
#1276500
0)
1"
b10 4
1-
1$
#1278800
1)
0"
b0 4
0-
0$
#1281000
b10101 &
0(
1#
#1281100
0)
1"
b10 4
1-
1$
#1283400
1)
0"
b0 4
0-
0$
#1285700
0)
1"
b10 4
1-
1$
#1288000
1)
0"
b0 4
0-
1(
0$
0#
#1290300
0)
1"
b10 4
1-
1$
#1292600
1)
0"
b0 4
0-
0$
#1294900
0)
1"
b10 4
1-
1$
#1295000
b10110 &
0(
1#
#1297200
1)
0"
b0 4
0-
0$
#1299500
0)
1"
b10 4
1-
1$
#1301800
1)
0"
b0 4
0-
0$
#1302000
1(
0#
#1304100
0)
1"
b10 4
1-
1$
#1306400
1)
0"
b0 4
0-
0$
#1308700
0)
1"
b10 4
1-
1$
#1309000
b10111 &
0(
1#
#1311000
1)
0"
b0 4
0-
0$
#1313300
0)
1"
b10 4
1-
1$
#1315600
1)
0"
b0 4
0-
0$
#1316000
1(
0#
#1317900
0)
1"
b10 4
1-
1$
#1320200
1)
0"
b0 4
0-
0$
#1322500
0)
1"
b10 4
1-
1$
#1323000
b11000 &
0(
1#
#1324800
1)
0"
b0 4
0-
0$
#1327100
0)
1"
b10 4
1-
1$
#1329400
1)
0"
b0 4
0-
0$
#1330000
1(
0#
#1331700
0)
1"
b10 4
1-
1$
#1334000
1)
0"
b0 4
0-
0$
#1336300
0)
1"
b10 4
1-
1$
#1337000
b11001 &
0(
1#
#1338600
1)
0"
b0 4
0-
0$
#1340900
0)
1"
b10 4
1-
1$
#1343200
1)
0"
b0 4
0-
0$
#1344000
1(
0#
#1345500
0)
1"
b10 4
1-
1$
#1347800
1)
0"
b0 4
0-
0$
#1350100
0)
1"
b10 4
1-
1$
#1351000
b11010 &
0(
1#
#1352400
1)
0"
b0 4
0-
0$
#1354700
0)
1"
b10 4
1-
1$
#1357000
1)
0"
b0 4
0-
0$
#1358000
1(
0#
#1359300
0)
1"
b10 4
1-
1$
#1361600
1)
0"
b0 4
0-
0$
#1363900
0)
1"
b10 4
1-
1$
#1365000
b11011 &
0(
1#
#1366200
1)
0"
b0 4
0-
0$
#1368500
0)
1"
b10 4
1-
1$
#1370800
1)
0"
b0 4
0-
0$
#1372000
1(
0#
#1373100
0)
1"
b10 4
1-
1$
#1375400
1)
0"
b0 4
0-
0$
#1377700
0)
1"
b10 4
1-
1$
#1379000
b11100 &
0(
1#
#1380000
1)
0"
b0 4
0-
0$
#1382300
0)
1"
b10 4
1-
1$
#1384600
1)
0"
b0 4
0-
0$
#1386000
1(
0#
#1386900
0)
1"
b10 4
1-
1$
#1389200
1)
0"
b0 4
0-
0$
#1391500
0)
1"
b10 4
1-
1$
#1393000
b11101 &
0(
1#
#1393800
1)
0"
b0 4
0-
0$
#1396100
0)
1"
b10 4
1-
1$
#1398400
1)
0"
b0 4
0-
0$
#1400000
1(
0#
#1400700
0)
1"
b10 4
1-
1$
#1403000
1)
0"
b0 4
0-
0$
#1405300
0)
1"
b10 4
1-
1$
#1407000
b11110 &
0(
1#
#1407600
1)
0"
b0 4
0-
0$
#1409900
0)
1"
b10 4
1-
1$
#1412200
1)
0"
b0 4
0-
0$
#1414000
1(
0#
#1414500
0)
1"
b10 4
1-
1$
#1416800
1)
0"
b0 4
0-
0$
#1419100
0)
1"
b10 4
1-
1$
#1421000
b11111 &
0(
1#
#1421400
1)
0"
b0 4
0-
0$
#1423700
0)
1"
b10 4
1-
1$
#1426000
1)
0"
b0 4
0-
0$
#1428000
1(
0#
#1428300
0)
1"
b10 4
1-
1$
#1430600
1)
0"
b0 4
0-
0$
#1432900
0)
1"
b10 4
1-
1$
#1435000
b100000 &
0(
1#
#1435200
1)
0"
b0 4
0-
0$
#1437500
0)
1"
b10 4
1-
1$
#1439800
1)
0"
b0 4
0-
0$
#1442000
1(
0#
#1442100
0)
1"
b10 4
1-
1$
#1444400
1)
0"
b0 4
0-
0$
#1446700
0)
1"
b10 4
1-
1$
#1449000
b100001 &
1)
0"
b0 4
0-
0(
0$
1#
#1451300
0)
1"
b10 4
1-
1$
#1453600
1)
0"
b0 4
0-
0$
#1455900
0)
1"
b10 4
1-
1$
#1456000
1(
0#
#1458200
1)
0"
b0 4
0-
0$
#1460500
0)
1"
b10 4
1-
1$
#1462800
1)
0"
b0 4
0-
0$
#1463000
b100010 &
0(
1#
#1465100
0)
1"
b10 4
1-
1$
#1467400
1)
0"
b0 4
0-
0$
#1469700
0)
1"
b10 4
1-
1$
#1470000
1(
0#
#1472000
1)
0"
b0 4
0-
0$
#1474300
0)
1"
b10 4
1-
1$
#1476600
1)
0"
b0 4
0-
0$
#1477000
b100011 &
0(
1#
#1478900
0)
1"
b10 4
1-
1$
#1481200
1)
0"
b0 4
0-
0$
#1483500
0)
1"
b10 4
1-
1$
#1484000
1(
0#
#1485800
1)
0"
b0 4
0-
0$
#1488100
0)
1"
b10 4
1-
1$
#1490400
1)
0"
b0 4
0-
0$
#1491000
b100100 &
0(
1#
#1492700
0)
1"
b10 4
1-
1$
#1495000
1)
0"
b0 4
0-
0$
#1497300
0)
1"
b10 4
1-
1$
#1498000
1(
0#
#1499600
1)
0"
b0 4
0-
0$
#1501900
0)
1"
b10 4
1-
1$
#1504200
1)
0"
b0 4
0-
0$
#1505000
b100101 &
0(
1#
#1506500
0)
1"
b10 4
1-
1$
#1508800
1)
0"
b0 4
0-
0$
#1511100
0)
1"
b10 4
1-
1$
#1512000
1(
0#
#1513400
1)
0"
b0 4
0-
0$
#1515700
0)
1"
b10 4
1-
1$
#1518000
1)
0"
b0 4
0-
0$
#1519000
b100110 &
0(
1#
#1520300
0)
1"
b10 4
1-
1$
#1522600
1)
0"
b0 4
0-
0$
#1524900
0)
1"
b10 4
1-
1$
#1526000
1(
0#
#1527200
1)
0"
b0 4
0-
0$
#1529500
0)
1"
b10 4
1-
1$
#1531800
1)
0"
b0 4
0-
0$
#1533000
b100111 &
0(
1#
#1534100
0)
1"
b10 4
1-
1$
#1536400
1)
0"
b0 4
0-
0$
#1538700
0)
1"
b10 4
1-
1$
#1540000
1(
0#
#1541000
1)
0"
b0 4
0-
0$
#1543300
0)
1"
b10 4
1-
1$
#1545600
1)
0"
b0 4
0-
0$
#1547000
b101000 &
0(
1#
#1547900
0)
1"
b10 4
1-
1$
#1550200
1)
0"
b0 4
0-
0$
#1552500
0)
1"
b10 4
1-
1$
#1554000
1(
0#
#1554800
1)
0"
b0 4
0-
0$
#1557100
0)
1"
b10 4
1-
1$
#1559400
1)
0"
b0 4
0-
0$
#1561000
b101001 &
0(
1#
#1561700
0)
1"
b10 4
1-
1$
#1564000
1)
0"
b0 4
0-
0$
#1566300
0)
1"
b10 4
1-
1$
#1568000
1(
0#
#1568600
1)
0"
b0 4
0-
0$
#1570900
0)
1"
b10 4
1-
1$
#1573200
1)
0"
b0 4
0-
0$
#1575000
b101010 &
0(
1#
#1575500
0)
1"
b10 4
1-
1$
#1577800
1)
0"
b0 4
0-
0$
#1580100
0)
1"
b10 4
1-
1$
#1582000
1(
0#
#1582400
1)
0"
b0 4
0-
0$
#1584700
0)
1"
b10 4
1-
1$
#1587000
1)
0"
b0 4
0-
0$
#1589000
b101011 &
0(
1#
#1589300
0)
1"
b10 4
1-
1$
#1591600
1)
0"
b0 4
0-
0$
#1593900
0)
1"
b10 4
1-
1$
#1596000
1(
0#
#1596200
1)
0"
b0 4
0-
0$
#1598500
0)
1"
b10 4
1-
1$
#1600800
1)
0"
b0 4
0-
0$
#1603000
b101100 &
0(
1#
#1603100
0)
1"
b10 4
1-
1$
#1605400
1)
0"
b0 4
0-
0$
#1607700
0)
1"
b10 4
1-
1$
#1610000
1)
0"
b0 4
0-
1(
0$
0#
#1612300
0)
1"
b10 4
1-
1$
#1614600
1)
0"
b0 4
0-
0$
#1616900
0)
1"
b10 4
1-
1$
#1617000
b101101 &
0(
1#
#1619200
1)
0"
b0 4
0-
0$
#1621500
0)
1"
b10 4
1-
1$
#1623800
1)
0"
b0 4
0-
0$
#1624000
1(
0#
#1626100
0)
1"
b10 4
1-
1$
#1628400
1)
0"
b0 4
0-
0$
#1630700
0)
1"
b10 4
1-
1$
#1631000
b101110 &
0(
1#
#1633000
1)
0"
b0 4
0-
0$
#1635300
0)
1"
b10 4
1-
1$
#1637600
1)
0"
b0 4
0-
0$
#1638000
1(
0#
#1639900
0)
1"
b10 4
1-
1$
#1642200
1)
0"
b0 4
0-
0$
#1644500
0)
1"
b10 4
1-
1$
#1645000
b101111 &
0(
1#
#1646800
1)
0"
b0 4
0-
0$
#1649100
0)
1"
b10 4
1-
1$
#1651400
1)
0"
b0 4
0-
0$
#1652000
1(
0#
#1653700
0)
1"
b10 4
1-
1$
#1656000
1)
0"
b0 4
0-
0$
#1658300
0)
1"
b10 4
1-
1$
#1659000
b110000 &
0(
1#
#1660600
1)
0"
b0 4
0-
0$
#1662900
0)
1"
b10 4
1-
1$
#1665200
1)
0"
b0 4
0-
0$
#1666000
1(
0#
#1667500
0)
1"
b10 4
1-
1$
#1669800
1)
0"
b0 4
0-
0$
#1672100
0)
1"
b10 4
1-
1$
#1673000
b110001 &
0(
1#
#1674400
1)
0"
b0 4
0-
0$
#1676700
0)
1"
b10 4
1-
1$
#1679000
1)
0"
b0 4
0-
0$
#1680000
1(
0#
#1681300
0)
1"
b10 4
1-
1$
#1683600
1)
0"
b0 4
0-
0$
#1685900
0)
1"
b10 4
1-
1$
#1687000
b110010 &
0(
1#
#1688200
1)
0"
b0 4
0-
0$
#1690500
0)
1"
b10 4
1-
1$
#1692800
1)
0"
b0 4
0-
0$
#1694000
1(
0#
#1695100
0)
1"
b10 4
1-
1$
#1697400
1)
0"
b0 4
0-
0$
#1699700
0)
1"
b10 4
1-
1$
#1701000
b110011 &
0(
1#
#1702000
1)
0"
b0 4
0-
0$
#1704300
0)
1"
b10 4
1-
1$
#1706600
1)
0"
b0 4
0-
0$
#1708000
1(
0#
#1708900
0)
1"
b10 4
1-
1$
#1711200
1)
0"
b0 4
0-
0$
#1713500
0)
1"
b10 4
1-
1$
#1715000
b110100 &
0(
1#
