veri-sim/fifo/fifo_tb.vcd
$date
	Thu Jul 20 23:06:12 2023
$end
$version
	Icarus Verilog
$end
$timescale
	1ps
$end
$scope module fifo_tb $end
$var reg 1 ! clk $end
$var reg 1 " rst $end
$scope module dut $end
$var wire 1 ! clock $end
$var wire 1 # full $end
$var wire 1 $ io_rd_valid $end
$var wire 1 % io_wr_ready $end
$var wire 32 & ram_MPORT_data [31:0] $end
$var wire 1 ' ram_MPORT_en $end
$var wire 1 ( ram_MPORT_mask $end
$var wire 32 ) ram_rdat_MPORT_data [31:0] $end
$var wire 1 * ram_rdat_MPORT_en $end
$var wire 1 + ren $end
$var wire 1 " reset $end
$var wire 1 , wen $end
$var wire 4 - ram_rdat_MPORT_addr [3:0] $end
$var wire 4 . ram_MPORT_addr [3:0] $end
$var wire 1 / io_wr_valid $end
$var wire 32 0 io_wr_bits [31:0] $end
$var wire 1 1 io_rd_ready $end
$var wire 32 2 io_rd_bits [31:0] $end
$var wire 1 3 empty $end
$var wire 5 4 _wptr_r_T_1 [4:0] $end
$var wire 5 5 _rptr_r_T_1 [4:0] $end
$var reg 5 6 rptr_r [4:0] $end
$var reg 5 7 wptr_r [4:0] $end
$upscope $end
$scope module tb_if $end
$var wire 1 ! clk $end
$var wire 32 8 io_rd_bits [31:0] $end
$var wire 1 $ io_rd_valid $end
$var wire 1 % io_wr_ready $end
$var wire 1 " rst $end
$var reg 1 1 io_rd_ready $end
$var reg 32 9 io_wr_bits [31:0] $end
$var reg 1 / io_wr_valid $end
$upscope $end
$scope begin $ivl_for_loop0 $end
$var integer 32 : i [31:0] $end
$upscope $end
$scope task run $end
$scope begin $ivl_for_loop1 $end
$var integer 32 ; i [31:0] $end
$upscope $end
$upscope $end
$upscope $end
$scope module fifo_tb $end
$scope module dut $end
$var reg 32 < \ram[0] [31:0] $end
$upscope $end
$upscope $end
$scope module fifo_tb $end
$scope module dut $end
$var reg 32 = \ram[1] [31:0] $end
$upscope $end
$upscope $end
$scope module fifo_tb $end
$scope module dut $end
$var reg 32 > \ram[2] [31:0] $end
$upscope $end
$upscope $end
$scope module fifo_tb $end
$scope module dut $end
$var reg 32 ? \ram[3] [31:0] $end
$upscope $end
$upscope $end
$scope module fifo_tb $end
$scope module dut $end
$var reg 32 @ \ram[4] [31:0] $end
$upscope $end
$upscope $end
$scope module fifo_tb $end
$scope module dut $end
$var reg 32 A \ram[5] [31:0] $end
$upscope $end
$upscope $end
$scope module fifo_tb $end
$scope module dut $end
$var reg 32 B \ram[6] [31:0] $end
$upscope $end
$upscope $end
$scope module fifo_tb $end
$scope module dut $end
$var reg 32 C \ram[7] [31:0] $end
$upscope $end
$upscope $end
$scope module fifo_tb $end
$scope module dut $end
$var reg 32 D \ram[8] [31:0] $end
$upscope $end
$upscope $end
$scope module fifo_tb $end
$scope module dut $end
$var reg 32 E \ram[9] [31:0] $end
$upscope $end
$upscope $end
$scope module fifo_tb $end
$scope module dut $end
$var reg 32 F \ram[10] [31:0] $end
$upscope $end
$upscope $end
$scope module fifo_tb $end
$scope module dut $end
$var reg 32 G \ram[11] [31:0] $end
$upscope $end
$upscope $end
$scope module fifo_tb $end
$scope module dut $end
$var reg 32 H \ram[12] [31:0] $end
$upscope $end
$upscope $end
$scope module fifo_tb $end
$scope module dut $end
$var reg 32 I \ram[13] [31:0] $end
$upscope $end
$upscope $end
$scope module fifo_tb $end
$scope module dut $end
$var reg 32 J \ram[14] [31:0] $end
$upscope $end
$upscope $end
$scope module fifo_tb $end
$scope module dut $end
$var reg 32 K \ram[15] [31:0] $end
$upscope $end
$upscope $end
$enddefinitions $end
#0
$dumpvars
bx K
bx J
bx I
bx H
bx G
bx F
bx E
bx D
bx C
bx B
bx A
bx @
bx ?
bx >
bx =
bx <
b0 ;
b10000 :
bx 9
bx 8
bx 7
bx 6
bx 5
bx 4
x3
bx 2
x1
bx 0
x/
bx .
bx -
x,
x+
1*
bx )
1(
x'
bx &
x%
x$
x#
1"
0!
$end
#10000
1%
b0 2
b0 8
0#
0+
0$
b0 -
b0 .
13
b1 5
b0 6
b1 4
b0 7
1!
#20000
0!
#30000
1!
#40000
0!
#50000
1!
#60000
0!
#70000
1!
#80000
0!
#90000
1!
#100000
0'
0,
11
b11000000100010010101111010000001 &
b11000000100010010101111010000001 0
b11000000100010010101111010000001 9
0/
0!
0"
#110000
1!
#112000
1'
1,
b110101110010111101100001101 &
b110101110010111101100001101 0
b110101110010111101100001101 9
1/
b1 ;
#120000
0!
#130000
b110101110010111101100001101 2
b110101110010111101100001101 8
1+
1$
b1 .
03
b10 4
b1 7
b110101110010111101100001101 <
b110101110010111101100001101 )
1!
#132000
b10001001001101110101001000010010 &
b10001001001101110101001000010010 0
b10001001001101110101001000010010 9
b10 ;
#140000
0!
#150000
b10001001001101110101001000010010 2
b10001001001101110101001000010010 8
b10001001001101110101001000010010 )
b1 -
b10 .
b10 5
b1 6
b11 4
b10 7
b10001001001101110101001000010010 =
1!
#152000
b111011001000111111000101110110 &
b111011001000111111000101110110 0
b111011001000111111000101110110 9
b11 ;
#160000
0!
#170000
b111011001000111111000101110110 2
b111011001000111111000101110110 8
b111011001000111111000101110110 )
b10 -
b11 .
b11 5
b10 6
b100 4
b11 7
b111011001000111111000101110110 >
1!
#172000
b1000110001011011111011110001100 &
b1000110001011011111011110001100 0
b1000110001011011111011110001100 9
b100 ;
#180000
0!
#190000
b1000110001011011111011110001100 2
b1000110001011011111011110001100 8
b1000110001011011111011110001100 )
b11 -
b100 .
b100 5
b11 6
b101 4
b100 7
b1000110001011011111011110001100 ?
1!
#192000
b0 2
b0 8
0+
0'
0,
01
b11100010111101111000010011000101 &
b11100010111101111000010011000101 0
b11100010111101111000010011000101 9
0/
b101 ;
#200000
0!
#210000
1!
#212000
1'
1,
b10111011110100100111001001110111 &
b10111011110100100111001001110111 0
b10111011110100100111001001110111 9
1/
b110 ;
#220000
0!
#230000
b101 .
b110 4
b101 7
b10111011110100100111001001110111 @
1!
#232000
b1111001001100000110100111110010 &
b1111001001100000110100111110010 0
b1111001001100000110100111110010 9
b111 ;
#240000
0!
#250000
b110 .
b111 4
b110 7
b1111001001100000110100111110010 A
1!
#252000
0'
0,
b11100010110010100100111011000101 &
b11100010110010100100111011000101 0
b11100010110010100100111011000101 9
0/
b1000 ;
#260000
0!
#270000
1!
#272000
b1000110001011011111011110001100 2
b1000110001011011111011110001100 8
1+
1'
1,
11
b10010110101010110101100000101101 &
b10010110101010110101100000101101 0
b10010110101010110101100000101101 9
1/
b1001 ;
#280000
0!
#290000
b10111011110100100111001001110111 2
b10111011110100100111001001110111 8
b10111011110100100111001001110111 )
b100 -
b111 .
b101 5
b100 6
b1000 4
b111 7
b10010110101010110101100000101101 B
1!
#292000
b0 2
b0 8
0+
01
b101011100111000011100001010 &
b101011100111000011100001010 0
b101011100111000011100001010 9
b1010 ;
#300000
0!
#310000
b1000 .
b1001 4
b1000 7
b101011100111000011100001010 C
1!
#312000
b10111011110100100111001001110111 2
b10111011110100100111001001110111 8
1+
0'
0,
11
b1010101011110000100010110101010 &
b1010101011110000100010110101010 0
b1010101011110000100010110101010 9
0/
b1011 ;
#320000
0!
#330000
b1111001001100000110100111110010 2
b1111001001100000110100111110010 8
b1111001001100000110100111110010 )
b101 -
b110 5
b101 6
1!
#332000
b10001001100000111011100000010011 &
b10001001100000111011100000010011 0
b10001001100000111011100000010011 9
b1100 ;
#340000
0!
#350000
b10010110101010110101100000101101 2
b10010110101010110101100000101101 8
b10010110101010110101100000101101 )
b110 -
b111 5
b110 6
1!
#352000
1'
1,
b110101100111111101110101101011 &
b110101100111111101110101101011 0
b110101100111111101110101101011 9
1/
b1101 ;
#360000
0!
#370000
b101011100111000011100001010 2
b101011100111000011100001010 8
b101011100111000011100001010 )
b111 -
b1001 .
b1000 5
b111 6
b1010 4
b1001 7
b110101100111111101110101101011 D
1!
#372000
0'
0,
b11010111010101100011111010101110 &
b11010111010101100011111010101110 0
b11010111010101100011111010101110 9
0/
b1110 ;
#380000
0!
#390000
b110101100111111101110101101011 2
b110101100111111101110101101011 8
b110101100111111101110101101011 )
b1000 -
b1001 5
b1000 6
1!
#392000
b0 2
b0 8
0+
1'
1,
01
b10001100001000100100100100011 &
b10001100001000100100100100011 0
b10001100001000100100100100011 9
1/
b1111 ;
#400000
0!
#410000
b1010 .
b1011 4
b1010 7
b10001100001000100100100100011 E
1!
#412000
0'
0,
b10011110001100010100110000111100 &
b10011110001100010100110000111100 0
b10011110001100010100110000111100 9
0/
b10000 ;
#420000
0!
#430000
1!
#432000
b100000110001001011001101000001 &
b100000110001001011001101000001 0
b100000110001001011001101000001 9
b10001 ;
#440000
0!
#450000
1!
#452000
b110101100111111101110101101011 2
b110101100111111101110101101011 8
1+
11
b11000100100010100001001010001001 &
b11000100100010100001001010001001 0
b11000100100010100001001010001001 9
b10010 ;
#460000
0!
#470000
b10001100001000100100100100011 2
b10001100001000100100100100011 8
b10001100001000100100100100011 )
b1001 -
b1010 5
b1001 6
1!
#472000
b0 2
b0 8
0+
01
b1100011010010111111100111000110 &
b1100011010010111111100111000110 0
b1100011010010111111100111000110 9
b10011 ;
#480000
0!
#490000
1!
#492000
b10001100001000100100100100011 2
b10001100001000100100100100011 8
1+
11
b10101000011111101110100101010 &
b10101000011111101110100101010 0
b10101000011111101110100101010 9
b10100 ;
#500000
0!
#510000
0+
b0 2
b0 8
0$
bx )
b1010 -
13
b1011 5
b1010 6
1!
#512000
1'
1,
b1000010111100100100000110000101 &
b1000010111100100100000110000101 0
b1000010111100100100000110000101 9
1/
b10101 ;
#520000
0!
#530000
b1000010111100100100000110000101 2
b1000010111100100100000110000101 8
1+
1$
b1011 .
03
b1100 4
b1011 7
b1000010111100100100000110000101 F
b1000010111100100100000110000101 )
1!
#532000
b0 2
b0 8
0+
01
b11101000001100011001100111010 &
b11101000001100011001100111010 0
b11101000001100011001100111010 9
b10110 ;
#540000
0!
#550000
b1100 .
b1101 4
b1100 7
b11101000001100011001100111010 G
1!
#552000
b1000010111100100100000110000101 2
b1000010111100100100000110000101 8
1+
11
b1111000110110011001101111110001 &
b1111000110110011001101111110001 0
b1111000110110011001101111110001 9
b10111 ;
#560000
0!
#570000
b11101000001100011001100111010 2
b11101000001100011001100111010 8
b11101000001100011001100111010 )
b1011 -
b1101 .
b1100 5
b1011 6
b1110 4
b1101 7
b1111000110110011001101111110001 H
1!
#572000
0'
0,
b100110001101011111101101001100 &
b100110001101011111101101001100 0
b100110001101011111101101001100 9
0/
b11000 ;
#580000
0!
#590000
b1111000110110011001101111110001 2
b1111000110110011001101111110001 8
b1111000110110011001101111110001 )
b1100 -
b1101 5
b1100 6
1!
#592000
1'
1,
b1111100011011011010100111111000 &
b1111100011011011010100111111000 0
b1111100011011011010100111111000 9
1/
b11001 ;
#600000
0!
#610000
b1111100011011011010100111111000 2
b1111100011011011010100111111000 8
b1111100011011011010100111111000 )
b1101 -
b1110 .
b1110 5
b1101 6
b1111 4
b1110 7
b1111100011011011010100111111000 I
1!
#612000
b10101110011111011001010001011100 &
b10101110011111011001010001011100 0
b10101110011111011001010001011100 9
b11010 ;
#620000
0!
#630000
b10101110011111011001010001011100 2
b10101110011111011001010001011100 8
b10101110011111011001010001011100 )
b1110 -
b1111 .
b1111 5
b1110 6
b10000 4
b1111 7
b10101110011111011001010001011100 J
1!
#632000
b0 2
b0 8
0+
01
b10100100101011100011001001001001 &
b10100100101011100011001001001001 0
b10100100101011100011001001001001 9
b11011 ;
#640000
0!
#650000
b0 .
b10001 4
b10000 7
b10100100101011100011001001001001 K
1!
#652000
b10101000110001111111110001010001 &
b10101000110001111111110001010001 0
b10101000110001111111110001010001 9
b11100 ;
#660000
0!
#670000
b1 .
b10010 4
b10001 7
b10101000110001111111110001010001 <
1!
#672000
0'
0,
b11100001001011001100111011000010 &
b11100001001011001100111011000010 0
b11100001001011001100111011000010 9
0/
b11101 ;
#680000
0!
#690000
1!
#692000
1'
1,
b11110111100101110110100111101 &
b11110111100101110110100111101 0
b11110111100101110110100111101 9
1/
b11110 ;
#700000
0!
#710000
b10 .
b10011 4
b10010 7
b11110111100101110110100111101 =
1!
#712000
b10101110011111011001010001011100 2
b10101110011111011001010001011100 8
1+
0'
0,
11
b110110111001011000000101101101 &
b110110111001011000000101101101 0
b110110111001011000000101101101 9
0/
b11111 ;
#720000
0!
#730000
b10100100101011100011001001001001 2
b10100100101011100011001001001001 8
b10100100101011100011001001001001 )
b1111 -
b10000 5
b1111 6
1!
#732000
b100000 ;
